singlecycle.vcd
$date
	Tue Dec 29 20:23:00 2020
$end
$version
	Icarus Verilog
$end
$timescale
	1ps
$end
$scope module ProcTest_v $end
$var wire 32 ! instruction [31:0] $end
$var wire 32 " first_instruction [31:0] $end
$var wire 64 # currentPC [63:0] $end
$var wire 64 $ WB_data [63:0] $end
$var reg 1 % CLK $end
$var reg 1 & Reset_L $end
$var reg 8 ' passed [7:0] $end
$var reg 64 ( startPC [63:0] $end
$var reg 16 ) watchdog [15:0] $end
$scope module uut $end
$var wire 1 % CLK $end
$var wire 1 & resetl $end
$var wire 64 * startpc [63:0] $end
$var wire 1 + zero $end
$var wire 1 , uncond_branch $end
$var wire 3 - signop [2:0] $end
$var wire 5 . rn [4:0] $end
$var wire 5 / rm [4:0] $end
$var wire 1 0 regwrite $end
$var wire 64 1 regoutB [63:0] $end
$var wire 64 2 regoutA [63:0] $end
$var wire 1 3 reg2loc $end
$var wire 5 4 rd [4:0] $end
$var wire 11 5 opcode [10:0] $end
$var wire 64 6 nextPC [63:0] $end
$var wire 1 7 memwrite $end
$var wire 1 8 memread $end
$var wire 1 9 mem2reg $end
$var wire 32 : instruction [31:0] $end
$var wire 64 ; extimm [63:0] $end
$var wire 64 < dmemout [63:0] $end
$var wire 1 = branch $end
$var wire 1 > alusrc $end
$var wire 64 ? aluout [63:0] $end
$var wire 4 @ aluctrl [3:0] $end
$var wire 64 A WB_data [63:0] $end
$var wire 1 B PC_WriteEn $end
$var wire 1 C IFID_WriteEn $end
$var wire 2 D ForwardB [1:0] $end
$var wire 2 E ForwardA [1:0] $end
$var wire 1 F Control_Sel $end
$var wire 1 G BranchPC $end
$var wire 64 H ALUinB [63:0] $end
$var wire 64 I ALUinA [63:0] $end
$var wire 64 J ALUB_in1_choice [63:0] $end
$var reg 64 K EXMEM_ALUout [63:0] $end
$var reg 4 L EXMEM_M [3:0] $end
$var reg 64 M EXMEM_PC [63:0] $end
$var reg 2 N EXMEM_WB [1:0] $end
$var reg 5 O EXMEM_WReg [4:0] $end
$var reg 1 P EXMEM_Zero $end
$var reg 64 Q EXMEM_rDataB [63:0] $end
$var reg 11 R IDEX_ALUfield [10:0] $end
$var reg 1 S IDEX_ALUop $end
$var reg 4 T IDEX_EX [3:0] $end
$var reg 4 U IDEX_M [3:0] $end
$var reg 64 V IDEX_PC [63:0] $end
$var reg 64 W IDEX_SignExtender [63:0] $end
$var reg 2 X IDEX_WB [1:0] $end
$var reg 5 Y IDEX_WReg [4:0] $end
$var reg 64 Z IDEX_rDataA [63:0] $end
$var reg 64 [ IDEX_rDataB [63:0] $end
$var reg 5 \ IDEX_rm [4:0] $end
$var reg 5 ] IDEX_rn [4:0] $end
$var reg 64 ^ IFID_PC [63:0] $end
$var reg 32 _ IFID_instruction [31:0] $end
$var reg 32 ` IFID_instruction_debug [31:0] $end
$var reg 64 a MEMWB_ALUout [63:0] $end
$var reg 2 b MEMWB_WB [1:0] $end
$var reg 5 c MEMWB_WReg [4:0] $end
$var reg 64 d MEMWB_rData [63:0] $end
$var reg 64 e currentpc [63:0] $end
$var reg 32 f instructionOut [31:0] $end
$scope module ALU $end
$var wire 4 g ALUCtrl [3:0] $end
$var wire 1 % Clk $end
$var wire 1 + Zero $end
$var wire 64 h BusB [63:0] $end
$var wire 64 i BusA [63:0] $end
$var reg 64 j BusW [63:0] $end
$upscope $end
$scope module ALUA $end
$var wire 1 % Clk $end
$var wire 1 k en $end
$var wire 64 l in1 [63:0] $end
$var wire 64 m in3 [63:0] $end
$var wire 64 n in2 [63:0] $end
$var wire 2 o ctrl [1:0] $end
$var reg 64 p out [63:0] $end
$upscope $end
$scope module ALUB $end
$var wire 1 % Clk $end
$var wire 1 q en $end
$var wire 64 r in3 [63:0] $end
$var wire 64 s in2 [63:0] $end
$var wire 64 t in1 [63:0] $end
$var wire 2 u ctrl [1:0] $end
$var reg 64 v out [63:0] $end
$upscope $end
$scope module ALUB_in1_src $end
$var wire 1 S ctrl $end
$var wire 64 w in1 [63:0] $end
$var wire 64 x in2 [63:0] $end
$var reg 64 y out [63:0] $end
$upscope $end
$scope module DataMemory $end
$var wire 64 z Address [63:0] $end
$var wire 1 % Clock $end
$var wire 1 { MemoryRead $end
$var wire 1 | MemoryWrite $end
$var wire 64 } WriteData [63:0] $end
$var reg 64 ~ ReadData [63:0] $end
$scope task initset $end
$var reg 64 !" addr [63:0] $end
$var reg 64 "" data [63:0] $end
$upscope $end
$upscope $end
$scope module FU $end
$var wire 1 % Clk $end
$var wire 1 #" EXMEM_RegWrite $end
$var wire 5 $" EXMEM_WriteRegister [4:0] $end
$var wire 5 %" IDEX_rm [4:0] $end
$var wire 5 &" IDEX_rn [4:0] $end
$var wire 1 '" MEMWB_RegWrite $end
$var wire 5 (" MEMWB_WriteRegister [4:0] $end
$var wire 1 )" a $end
$var wire 1 *" c $end
$var wire 1 +" notx $end
$var wire 1 ," notx1 $end
$var wire 1 -" x $end
$var wire 1 ." x1 $end
$var wire 1 /" y $end
$var wire 1 0" y1 $end
$var wire 1 1" d1 $end
$var wire 1 2" d $end
$var wire 1 3" b1 $end
$var wire 1 4" b $end
$var wire 2 5" ForwardB [1:0] $end
$var wire 2 6" ForwardA [1:0] $end
$scope module CompMEM_WriteReg_EXrs $end
$var wire 5 7" in1 [4:0] $end
$var wire 5 8" in2 [4:0] $end
$var reg 1 4" out $end
$upscope $end
$scope module CompMEM_WriteReg_EXrt $end
$var wire 5 9" in1 [4:0] $end
$var wire 5 :" in2 [4:0] $end
$var reg 1 3" out $end
$upscope $end
$scope module CompWB_WriteReg_EXrs $end
$var wire 5 ;" in1 [4:0] $end
$var wire 5 <" in2 [4:0] $end
$var reg 1 2" out $end
$upscope $end
$scope module CompWB_WriteReg_EXrt $end
$var wire 5 =" in1 [4:0] $end
$var wire 5 >" in2 [4:0] $end
$var reg 1 1" out $end
$upscope $end
$upscope $end
$scope module Memory_WB_Mux $end
$var wire 1 ?" ctrl $end
$var wire 64 @" in1 [63:0] $end
$var wire 64 A" in2 [63:0] $end
$var reg 64 B" out [63:0] $end
$upscope $end
$scope module PCLogic $end
$var wire 1 P ALUZero $end
$var wire 1 C" Branch $end
$var wire 64 D" CurrPC [63:0] $end
$var wire 64 E" SignExtImm64 [63:0] $end
$var wire 1 F" Unconditional $end
$var wire 1 B WriteEn $end
$var reg 64 G" NextPC [63:0] $end
$upscope $end
$scope module RegisterFile $end
$var wire 64 H" BusW [63:0] $end
$var wire 1 % Clk $end
$var wire 5 I" RA [4:0] $end
$var wire 5 J" RB [4:0] $end
$var wire 5 K" RW [4:0] $end
$var wire 1 L" RegWr $end
$var wire 64 M" BusB [63:0] $end
$var wire 64 N" BusA [63:0] $end
$var integer 32 O" i [31:0] $end
$upscope $end
$scope module SignExtender $end
$var wire 1 % Clk $end
$var wire 26 P" Imm26 [25:0] $end
$var wire 2 Q" shift [1:0] $end
$var wire 3 R" Ctrl [2:0] $end
$var reg 64 S" BusImm [63:0] $end
$upscope $end
$scope module branchPC $end
$var wire 1 % Clk $end
$var wire 64 T" CurrentPC [63:0] $end
$var wire 64 U" ExtendedImm [63:0] $end
$var reg 1 G BranchPC $end
$upscope $end
$scope module control $end
$var wire 11 V" opcode [10:0] $end
$var reg 4 W" aluop [3:0] $end
$var reg 1 > alusrc $end
$var reg 1 = branch $end
$var reg 1 9 mem2reg $end
$var reg 1 8 memread $end
$var reg 1 7 memwrite $end
$var reg 1 3 reg2loc $end
$var reg 1 0 regwrite $end
$var reg 3 X" signop [2:0] $end
$var reg 1 , uncond_branch $end
$upscope $end
$scope module hdu $end
$var wire 1 Y" IDEX_MemRead $end
$var wire 5 Z" IDEX_rd [4:0] $end
$var wire 5 [" IFID_rd [4:0] $end
$var wire 5 \" IFID_rm [4:0] $end
$var wire 5 ]" IFID_rn [4:0] $end
$var reg 1 C IFID_WriteEn $end
$var reg 1 B PC_WriteEn $end
$var reg 1 F Stall_flush $end
$upscope $end
$scope module imem $end
$var wire 64 ^" Address [63:0] $end
$var reg 32 _" Data [31:0] $end
$upscope $end
$upscope $end
$scope task allPassed $end
$var reg 8 `" numTests [7:0] $end
$var reg 8 a" passed [7:0] $end
$upscope $end
$scope task passTest $end
$var reg 64 b" actualOut [63:0] $end
$var reg 64 c" expectedOut [63:0] $end
$var reg 8 d" passed [7:0] $end
$var reg 257 e" testType [256:0] $end
$upscope $end
$upscope $end
$enddefinitions $end
#0
$dumpvars
bx e"
bx d"
bx c"
bx b"
bx a"
bx `"
bx _"
bx ^"
bx ]"
bx \"
bx ["
bx Z"
xY"
bx X"
bx W"
bx V"
bx U"
bx T"
b0 S"
bx R"
bx Q"
bx P"
b1000000 O"
bx N"
bx M"
xL"
bx K"
bx J"
bx I"
bx H"
bx G"
xF"
bx E"
bx D"
xC"
bx B"
bx A"
bx @"
x?"
bx >"
bx ="
bx <"
bx ;"
bx :"
bx 9"
bx 8"
bx 7"
bx 6"
bx 5"
x4"
x3"
x2"
x1"
x0"
x/"
x."
x-"
x,"
x+"
x*"
x)"
bx ("
x'"
bx &"
bx %"
bx $"
x#"
b0 ""
b100000 !"
bx ~
bx }
x|
x{
bx z
bx y
bx x
bx w
bx v
bx u
bx t
bx s
bx r
1q
bx p
bx o
bx n
bx m
bx l
0k
bx j
bx i
bx h
bx g
bx f
bx e
bx d
bx c
bx b
bx a
bx `
bx _
bx ^
bx ]
bx \
bx [
bx Z
bx Y
bx X
bx W
bx V
bx U
bx T
xS
bx R
bx Q
xP
bx O
bx N
bx M
bx L
bx K
bx J
bx I
bx H
xG
xF
bx E
bx D
xC
xB
bx A
bx @
bx ?
x>
x=
bx <
b0 ;
bx :
x9
x8
x7
bx 6
bx 5
bx 4
x3
bx 2
bx 1
x0
bx /
bx .
bx -
x,
x+
b0 *
b0 )
b0 (
b0 '
1&
0%
bx $
bx #
bx "
bx !
$end
#60000
0Y"
0F
1C
1B
b0x M
b0x E"
b0 W
b0 x
b0 U"
b0 T
b0 g
bx000 U
b0 Y
b0 Z"
0S
b0 X
1%
#120000
b1 )
0%
#121000
0&
#180000
1%
#240000
b11010010111000100100011010001001 :
b11010010111000100100011010001001 _"
b0 #
b0 e
b0 ^"
b10 )
0%
#241000
1&
#300000
b1xx -
b1xx R"
b1xx X"
b1000 @
b1000 W"
0,
0=
07
08
10
09
1>
04"
03"
0)"
1+"
b0 1
b0 M"
b0x E
b0x o
b0x 6"
0-"
b0 2
b0 N"
b1001 .
b1001 J"
b1001 ]"
b11 Q"
0{
0|
0C"
0#"
xY"
b1001 4
b1001 ["
b10100 /
b10100 I"
b10100 \"
b11010010111 5
b11010010111 V"
b10111000100100011010001001 P"
b100 6
b100 G"
b0 O
b0 $"
b0 7"
b0 9"
b0x M
b0x E"
bx000 L
b0 N
b11010010111 R
bx T
bx g
bx U
bx Y
bx Z"
xS
bx X
b11010010111000100100011010001001 "
b11010010111000100100011010001001 `
b11010010111000100100011010001001 _
b0 ^
b0 D"
1%
#350000
b0x D
b0x u
b0x 5"
0."
#360000
b11010010110010101100111100001010 :
b11010010110010101100111100001010 _"
b11010010111000100100011010001001 !
b11010010111000100100011010001001 f
b100 #
b100 e
b100 ^"
b1001000110100000000000000000000000000000000000000000000000000 ;
b1001000110100000000000000000000000000000000000000000000000000 S"
b11 )
0%
#400000
1,"
#420000
b0 I
b0 i
b0 p
01"
02"
b1001000110100000000000000000000000000000000000000000000000000 J
b1001000110100000000000000000000000000000000000000000000000000 t
b1001000110100000000000000000000000000000000000000000000000000 y
0*"
b0 E
b0 o
b0 6"
x)"
0/"
b1010 .
b1010 J"
b1010 ]"
b10 Q"
0'"
0L"
0?"
x{
x|
xC"
x#"
0Y"
b1010 4
b1010 ["
b11000 /
b11000 I"
b11000 \"
b11010010110 5
b11010010110 V"
b10110010101100111100001010 P"
b1000 6
b1000 G"
b0 c
b0 ("
b0 ;"
b0 ="
b0 K"
b0 b
bx O
bx $"
bx 7"
bx 9"
b0x M
b0x E"
bx L
bx N
b1001 ]
b1001 &"
b1001 :"
b1001 >"
b10100 \
b10100 %"
b10100 8"
b10100 <"
b11010010110 R
b1001000110100000000000000000000000000000000000000000000000000 W
b1001000110100000000000000000000000000000000000000000000000000 x
b1001000110100000000000000000000000000000000000000000000000000 U"
b0 [
b0 w
b0 Z
b0 l
b0 V
b0 T"
b1000 T
b1000 g
b0 U
b1001 Y
b1001 Z"
1S
b1 X
b11010010110010101100111100001010 "
b11010010110010101100111100001010 `
b11010010110010101100111100001010 _
b100 ^
b100 D"
1%
#470000
00"
#480000
b10001011000010100000000100101001 :
b10001011000010100000000100101001 _"
b11010010110010101100111100001010 !
b11010010110010101100111100001010 f
b1000 #
b1000 e
b1000 ^"
b10101100111100000000000000000000000000000000000 ;
b10101100111100000000000000000000000000000000000 S"
b100 )
0%
#520000
b1001000110100000000000000000000000000000000000000000000000000 ?
b1001000110100000000000000000000000000000000000000000000000000 j
b1001000110100000000000000000000000000000000000000000000000000 H
b1001000110100000000000000000000000000000000000000000000000000 h
b1001000110100000000000000000000000000000000000000000000000000 v
b0 D
b0 u
b0 5"
#521000
0+
#540000
b10101100111100000000000000000000000000000000000 ?
b10101100111100000000000000000000000000000000000 j
b10101100111100000000000000000000000000000000000 H
b10101100111100000000000000000000000000000000000 h
b10101100111100000000000000000000000000000000000 v
b0 -
b0 R"
b0 X"
b10 @
b10 W"
0>
03
b10101100111100000000000000000000000000000000000 J
b10101100111100000000000000000000000000000000000 t
b10101100111100000000000000000000000000000000000 y
x*"
1)"
b0 Q"
x'"
xL"
x?"
0{
0|
0C"
0F"
1#"
b1001 4
b1001 ["
b1001 /
b1001 I"
b1001 \"
b10001011000 5
b10001011000 V"
b11000010100000000100101001 P"
b1100 6
b1100 G"
0G
bx c
bx ("
bx ;"
bx ="
bx K"
bx b
b1001 O
b1001 $"
b1001 7"
b1001 9"
b0 Q
b0 }
b1001000110100000000000000000000000000000000000000000000000000 K
b1001000110100000000000000000000000000000000000000000000000000 m
b1001000110100000000000000000000000000000000000000000000000000 r
b1001000110100000000000000000000000000000000000000000000000000 z
0P
b0x M
b0x E"
b0 L
b1 N
b1010 ]
b1010 &"
b1010 :"
b1010 >"
b11000 \
b11000 %"
b11000 8"
b11000 <"
b10001011000 R
b10101100111100000000000000000000000000000000000 W
b10101100111100000000000000000000000000000000000 x
b10101100111100000000000000000000000000000000000 U"
b100 V
b100 T"
b1010 Y
b1010 Z"
b10001011000010100000000100101001 "
b10001011000010100000000100101001 `
b10001011000010100000000100101001 _
b1000 ^
b1000 D"
1%
#600000
b11010010101100110101011110001010 :
b11010010101100110101011110001010 _"
b10001011000010100000000100101001 !
b10001011000010100000000100101001 f
b1100 #
b1100 e
b1100 ^"
b1010000000 ;
b1010000000 S"
b101 )
0%
#660000
b1001000110100000000000000000000000000000000000000000000000000 ?
b1001000110100000000000000000000000000000000000000000000000000 j
b1001000110100000000000000000000000000000000000000000000000000 I
b1001000110100000000000000000000000000000000000000000000000000 i
b1001000110100000000000000000000000000000000000000000000000000 p
b0 H
b0 h
b0 v
b1 E
b1 o
b1 6"
1/"
b1xx -
b1xx R"
b1xx X"
b1000 @
b1000 W"
1>
x3
b1001000110100000000000000000000000000000000000000000000000000 $
b1001000110100000000000000000000000000000000000000000000000000 A
b1001000110100000000000000000000000000000000000000000000000000 n
b1001000110100000000000000000000000000000000000000000000000000 s
b1001000110100000000000000000000000000000000000000000000000000 B"
b1001000110100000000000000000000000000000000000000000000000000 H"
13"
12"
b0 J
b0 t
b0 y
1*"
b1 Q"
1'"
1L"
0?"
b1010 4
b1010 ["
b11100 /
b11100 I"
b11100 \"
b11010010101 5
b11010010101 V"
b10101100110101011110001010 P"
b10000 6
b10000 G"
b1001 c
b1001 ("
b1001 ;"
b1001 ="
b1001 K"
b1001000110100000000000000000000000000000000000000000000000000 a
b1001000110100000000000000000000000000000000000000000000000000 @"
b1 b
b1010 O
b1010 $"
b1010 7"
b1010 9"
b10101100111100000000000000000000000000000000000 K
b10101100111100000000000000000000000000000000000 m
b10101100111100000000000000000000000000000000000 r
b10101100111100000000000000000000000000000000000 z
b0 M
b0 E"
b1001 \
b1001 %"
b1001 8"
b1001 <"
b11010010101 R
b1010000000 W
b1010000000 x
b1010000000 U"
b1000 V
b1000 T"
b10 T
b10 g
b1001 Y
b1001 Z"
0S
b11010010101100110101011110001010 "
b11010010101100110101011110001010 `
b11010010101100110101011110001010 _
b1100 ^
b1100 D"
1%
#710000
b1001000110100010101100111100000000000000000000000000000000000 ?
b1001000110100010101100111100000000000000000000000000000000000 j
b10101100111100000000000000000000000000000000000 H
b10101100111100000000000000000000000000000000000 h
b10101100111100000000000000000000000000000000000 v
b10 D
b10 u
b10 5"
1."
#720000
b10001011000010100000000100101001 :
b10001011000010100000000100101001 _"
b11010010101100110101011110001010 !
b11010010101100110101011110001010 f
b10000 #
b10000 e
b10000 ^"
b10011010101111000000000000000000 ;
b10011010101111000000000000000000 S"
b110 )
0%
#760000
0,"
#780000
b0 I
b0 i
b0 p
b0 E
b0 o
b0 6"
0/"
b0 -
b0 R"
b0 X"
b10 @
b10 W"
0>
03
11"
b10101100111100000000000000000000000000000000000 $
b10101100111100000000000000000000000000000000000 A
b10101100111100000000000000000000000000000000000 n
b10101100111100000000000000000000000000000000000 s
b10101100111100000000000000000000000000000000000 B"
b10101100111100000000000000000000000000000000000 H"
03"
b1001000110100010101100111100000000000000000000000000000000000 H
b1001000110100010101100111100000000000000000000000000000000000 h
b1001000110100010101100111100000000000000000000000000000000000 v
02"
b1001000110100010101100111100000000000000000000000000000000000 ?
b1001000110100010101100111100000000000000000000000000000000000 j
b10011010101111000000000000000000 J
b10011010101111000000000000000000 t
b10011010101111000000000000000000 y
b1001000110100000000000000000000000000000000000000000000000000 2
b1001000110100000000000000000000000000000000000000000000000000 N"
b0 Q"
b1001 4
b1001 ["
b1001 /
b1001 I"
b1001 \"
b10001011000 5
b10001011000 V"
b11000010100000000100101001 P"
b10100 6
b10100 G"
b1010 c
b1010 ("
b1010 ;"
b1010 ="
b1010 K"
b10101100111100000000000000000000000000000000000 a
b10101100111100000000000000000000000000000000000 @"
b1001 O
b1001 $"
b1001 7"
b1001 9"
b1001000110100010101100111100000000000000000000000000000000000 K
b1001000110100010101100111100000000000000000000000000000000000 m
b1001000110100010101100111100000000000000000000000000000000000 r
b1001000110100010101100111100000000000000000000000000000000000 z
b0 M
b0 E"
b11100 \
b11100 %"
b11100 8"
b11100 <"
b10001011000 R
b10011010101111000000000000000000 W
b10011010101111000000000000000000 x
b10011010101111000000000000000000 U"
b1100 V
b1100 T"
b1000 T
b1000 g
b1010 Y
b1010 Z"
1S
b10001011000010100000000100101001 "
b10001011000010100000000100101001 `
b10001011000010100000000100101001 _
b10000 ^
b10000 D"
1%
#830000
b10011010101111000000000000000000 ?
b10011010101111000000000000000000 j
b10011010101111000000000000000000 H
b10011010101111000000000000000000 h
b10011010101111000000000000000000 v
10"
b0 D
b0 u
b0 5"
0."
#840000
b11010010100110111101111000001010 :
b11010010100110111101111000001010 _"
b10001011000010100000000100101001 !
b10001011000010100000000100101001 f
b10100 #
b10100 e
b10100 ^"
b1010000000 ;
b1010000000 S"
b111 )
0%
#841000
b10101100111100000000000000000000000000000000000 1
b10101100111100000000000000000000000000000000000 M"
#880000
1,"
#900000
b1001000110100101011001111000000000000000000000000000000000000 ?
b1001000110100101011001111000000000000000000000000000000000000 j
b10101100111100000000000000000000000000000000000 H
b10101100111100000000000000000000000000000000000 h
b10101100111100000000000000000000000000000000000 v
b1 E
b1 o
b1 6"
1/"
b1xx -
b1xx R"
b1xx X"
b1000 @
b1000 W"
1>
x3
01"
b1001000110100010101100111100000000000000000000000000000000000 $
b1001000110100010101100111100000000000000000000000000000000000 A
b1001000110100010101100111100000000000000000000000000000000000 n
b1001000110100010101100111100000000000000000000000000000000000 s
b1001000110100010101100111100000000000000000000000000000000000 B"
b1001000110100010101100111100000000000000000000000000000000000 H"
13"
12"
b1001000110100010101100111100000000000000000000000000000000000 I
b1001000110100010101100111100000000000000000000000000000000000 i
b1001000110100010101100111100000000000000000000000000000000000 p
b10101100111100000000000000000000000000000000000 J
b10101100111100000000000000000000000000000000000 t
b10101100111100000000000000000000000000000000000 y
b0 2
b0 N"
b1010 4
b1010 ["
b10000 /
b10000 I"
b10000 \"
b11010010100 5
b11010010100 V"
b10100110111101111000001010 P"
b11000 6
b11000 G"
b1001 c
b1001 ("
b1001 ;"
b1001 ="
b1001 K"
b1001000110100010101100111100000000000000000000000000000000000 a
b1001000110100010101100111100000000000000000000000000000000000 @"
b1010 O
b1010 $"
b1010 7"
b1010 9"
b10011010101111000000000000000000 K
b10011010101111000000000000000000 m
b10011010101111000000000000000000 r
b10011010101111000000000000000000 z
b0 M
b0 E"
b1001 \
b1001 %"
b1001 8"
b1001 <"
b11010010100 R
b1010000000 W
b1010000000 x
b1010000000 U"
b10101100111100000000000000000000000000000000000 [
b10101100111100000000000000000000000000000000000 w
b1001000110100000000000000000000000000000000000000000000000000 Z
b1001000110100000000000000000000000000000000000000000000000000 l
b10000 V
b10000 T"
b10 T
b10 g
b1001 Y
b1001 Z"
0S
b11010010100110111101111000001010 "
b11010010100110111101111000001010 `
b11010010100110111101111000001010 _
b10100 ^
b10100 D"
1%
#930000
b10010001101000101011001111000000000000000000000000000000000000 ?
b10010001101000101011001111000000000000000000000000000000000000 j
b1001000110100010101100111100000000000000000000000000000000000 H
b1001000110100010101100111100000000000000000000000000000000000 h
b1001000110100010101100111100000000000000000000000000000000000 v
b1 D
b1 u
b1 5"
#950000
00"
b11 D
b11 u
b11 5"
1."
#960000
b10001011000010100000000100101001 :
b10001011000010100000000100101001 _"
b11010010100110111101111000001010 !
b11010010100110111101111000001010 f
b11000 #
b11000 e
b11000 ^"
b1101111011110000 ;
b1101111011110000 S"
b1000 )
0%
#1000000
b1001000110100010101100111100010011010101111000000000000000000 ?
b1001000110100010101100111100010011010101111000000000000000000 j
b10011010101111000000000000000000 H
b10011010101111000000000000000000 h
b10011010101111000000000000000000 v
b10 D
b10 u
b10 5"
0,"
#1020000
b0 I
b0 i
b0 p
b0 E
b0 o
b0 6"
0/"
b0 -
b0 R"
b0 X"
b10 @
b10 W"
0>
03
11"
b10011010101111000000000000000000 $
b10011010101111000000000000000000 A
b10011010101111000000000000000000 n
b10011010101111000000000000000000 s
b10011010101111000000000000000000 B"
b10011010101111000000000000000000 H"
03"
b1001000110100010101100111100010011010101111000000000000000000 H
b1001000110100010101100111100010011010101111000000000000000000 h
b1001000110100010101100111100010011010101111000000000000000000 v
02"
b1001000110100010101100111100010011010101111000000000000000000 ?
b1001000110100010101100111100010011010101111000000000000000000 j
b1101111011110000 J
b1101111011110000 t
b1101111011110000 y
b1001000110100010101100111100000000000000000000000000000000000 2
b1001000110100010101100111100000000000000000000000000000000000 N"
b1001 4
b1001 ["
b1001 /
b1001 I"
b1001 \"
b10001011000 5
b10001011000 V"
b11000010100000000100101001 P"
b11100 6
b11100 G"
b1010 c
b1010 ("
b1010 ;"
b1010 ="
b1010 K"
b10011010101111000000000000000000 a
b10011010101111000000000000000000 @"
b1001 O
b1001 $"
b1001 7"
b1001 9"
b10101100111100000000000000000000000000000000000 Q
b10101100111100000000000000000000000000000000000 }
b1001000110100010101100111100010011010101111000000000000000000 K
b1001000110100010101100111100010011010101111000000000000000000 m
b1001000110100010101100111100010011010101111000000000000000000 r
b1001000110100010101100111100010011010101111000000000000000000 z
b0 M
b0 E"
b10000 \
b10000 %"
b10000 8"
b10000 <"
b10001011000 R
b1101111011110000 W
b1101111011110000 x
b1101111011110000 U"
b0 Z
b0 l
b10100 V
b10100 T"
b1000 T
b1000 g
b1010 Y
b1010 Z"
1S
b10001011000010100000000100101001 "
b10001011000010100000000100101001 `
b10001011000010100000000100101001 _
b11000 ^
b11000 D"
1%
#1070000
b1101111011110000 ?
b1101111011110000 j
b1101111011110000 H
b1101111011110000 h
b1101111011110000 v
10"
b0 D
b0 u
b0 5"
0."
#1080000
b11111000000000101000001111101001 :
b11111000000000101000001111101001 _"
b10001011000010100000000100101001 !
b10001011000010100000000100101001 f
b11100 #
b11100 e
b11100 ^"
b1010000000 ;
b1010000000 S"
b1001 )
0%
#1081000
b10011010101111000000000000000000 1
b10011010101111000000000000000000 M"
#1120000
1,"
#1140000
b1001000110100010101100111100100110101011110000000000000000000 ?
b1001000110100010101100111100100110101011110000000000000000000 j
b10011010101111000000000000000000 H
b10011010101111000000000000000000 h
b10011010101111000000000000000000 v
b1 E
b1 o
b1 6"
1/"
b1 -
b1 R"
b1 X"
17
00
x9
1>
13
01"
b1001000110100010101100111100010011010101111000000000000000000 $
b1001000110100010101100111100010011010101111000000000000000000 A
b1001000110100010101100111100010011010101111000000000000000000 n
b1001000110100010101100111100010011010101111000000000000000000 s
b1001000110100010101100111100010011010101111000000000000000000 B"
b1001000110100010101100111100010011010101111000000000000000000 H"
13"
12"
b1001000110100010101100111100010011010101111000000000000000000 I
b1001000110100010101100111100010011010101111000000000000000000 i
b1001000110100010101100111100010011010101111000000000000000000 p
b10011010101111000000000000000000 J
b10011010101111000000000000000000 t
b10011010101111000000000000000000 y
b1001000110100010101100111100000000000000000000000000000000000 1
b1001000110100010101100111100000000000000000000000000000000000 M"
b0 2
b0 N"
b1001 .
b1001 J"
b1001 ]"
b11111 /
b11111 I"
b11111 \"
b11111000000 5
b11111000000 V"
b101000001111101001 P"
b100000 6
b100000 G"
b1001 c
b1001 ("
b1001 ;"
b1001 ="
b1001 K"
b1001000110100010101100111100010011010101111000000000000000000 a
b1001000110100010101100111100010011010101111000000000000000000 @"
b1010 O
b1010 $"
b1010 7"
b1010 9"
b1101111011110000 K
b1101111011110000 m
b1101111011110000 r
b1101111011110000 z
b0 M
b0 E"
b1001 \
b1001 %"
b1001 8"
b1001 <"
b11111000000 R
b1010000000 W
b1010000000 x
b1010000000 U"
b10011010101111000000000000000000 [
b10011010101111000000000000000000 w
b1001000110100010101100111100000000000000000000000000000000000 Z
b1001000110100010101100111100000000000000000000000000000000000 l
b11000 V
b11000 T"
b10 T
b10 g
b1001 Y
b1001 Z"
0S
b11111000000000101000001111101001 "
b11111000000000101000001111101001 `
b11111000000000101000001111101001 _
b11100 ^
b11100 D"
1%
#1170000
b10010001101000101011001111000100110101011110000000000000000000 ?
b10010001101000101011001111000100110101011110000000000000000000 j
b1001000110100010101100111100010011010101111000000000000000000 H
b1001000110100010101100111100010011010101111000000000000000000 h
b1001000110100010101100111100010011010101111000000000000000000 v
b1 D
b1 u
b1 5"
#1190000
00"
b11 D
b11 u
b11 5"
1."
#1200000
b11111000010000101000001111101010 :
b11111000010000101000001111101010 _"
b11111000000000101000001111101001 !
b11111000000000101000001111101001 f
b100000 #
b100000 e
b100000 ^"
b101000 ;
b101000 S"
b1010 )
0%
#1201000
b1001000110100010101100111100010011010101111000000000000000000 1
b1001000110100010101100111100010011010101111000000000000000000 M"
#1240000
b1001000110100010101100111100010011010101111001101111011110000 ?
b1001000110100010101100111100010011010101111001101111011110000 j
b1101111011110000 H
b1101111011110000 h
b1101111011110000 v
b10 D
b10 u
b10 5"
0,"
#1260000
b0 I
b0 i
b0 p
b1001000110100010101100111100010011010101111001101111011110000 ?
b1001000110100010101100111100010011010101111001101111011110000 j
b0 E
b0 o
b0 6"
0/"
07
18
10
19
x3
b1101111011110000 $
b1101111011110000 A
b1101111011110000 n
b1101111011110000 s
b1101111011110000 B"
b1101111011110000 H"
b1001000110100010101100111100010011010101111001101111011110000 H
b1001000110100010101100111100010011010101111001101111011110000 h
b1001000110100010101100111100010011010101111001101111011110000 v
02"
b101000 J
b101000 t
b101000 y
b10011010101111000000000000000000 1
b10011010101111000000000000000000 M"
b1010 .
b1010 J"
b1010 ]"
b10 Q"
b1010 4
b1010 ["
b11111000010 5
b11111000010 V"
b10000101000001111101010 P"
b100100 6
b100100 G"
b1010 c
b1010 ("
b1010 ;"
b1010 ="
b1010 K"
b1101111011110000 a
b1101111011110000 @"
b1001 O
b1001 $"
b1001 7"
b1001 9"
b10011010101111000000000000000000 Q
b10011010101111000000000000000000 }
b1001000110100010101100111100010011010101111001101111011110000 K
b1001000110100010101100111100010011010101111001101111011110000 m
b1001000110100010101100111100010011010101111001101111011110000 r
b1001000110100010101100111100010011010101111001101111011110000 z
b0 M
b0 E"
b1001 ]
b1001 &"
b1001 :"
b1001 >"
b11111 \
b11111 %"
b11111 8"
b11111 <"
b11111000010 R
b101000 W
b101000 x
b101000 U"
b1001000110100010101100111100010011010101111000000000000000000 [
b1001000110100010101100111100010011010101111000000000000000000 w
b0 Z
b0 l
b11100 V
b11100 T"
b10 U
1S
bx0 X
b11111000010000101000001111101010 "
b11111000010000101000001111101010 `
b11111000010000101000001111101010 _
b100000 ^
b100000 D"
1%
#1320000
bx :
bx _"
b11111000010000101000001111101010 !
b11111000010000101000001111101010 f
b100100 #
b100100 e
b100100 ^"
b1011 )
0%
#1321000
b1101111011110000 1
b1101111011110000 M"
