singlecycle.vcd
$date
	Sun Jan 10 16:51:06 2021
$end
$version
	Icarus Verilog
$end
$timescale
	1ps
$end
$scope module ProcTest_v $end
$var wire 32 ! instruction [31:0] $end
$var wire 32 " first_instruction [31:0] $end
$var wire 64 # currentPC [63:0] $end
$var wire 64 $ WB_data [63:0] $end
$var reg 1 % CLK $end
$var reg 8 & ClkNum [7:0] $end
$var reg 1 ' Reset_L $end
$var reg 8 ( passed [7:0] $end
$var reg 64 ) startPC [63:0] $end
$var reg 16 * watchdog [15:0] $end
$scope module uut $end
$var wire 1 % CLK $end
$var wire 1 ' resetl $end
$var wire 64 + startpc [63:0] $end
$var wire 1 , zornz $end
$var wire 1 - zero $end
$var wire 1 . uncond_branch $end
$var wire 3 / signop [2:0] $end
$var wire 5 0 rn [4:0] $end
$var wire 5 1 rm [4:0] $end
$var wire 1 2 regwrite $end
$var wire 64 3 regoutB [63:0] $end
$var wire 64 4 regoutA [63:0] $end
$var wire 1 5 reg2loc $end
$var wire 5 6 rd [4:0] $end
$var wire 11 7 opcode [10:0] $end
$var wire 64 8 nextPC [63:0] $end
$var wire 1 9 memwrite $end
$var wire 1 : memread $end
$var wire 1 ; mem2reg $end
$var wire 32 < instruction [31:0] $end
$var wire 64 = extimm [63:0] $end
$var wire 64 > dmemout [63:0] $end
$var wire 1 ? branch $end
$var wire 1 @ alusrc $end
$var wire 64 A aluout [63:0] $end
$var wire 4 B aluctrl [3:0] $end
$var wire 64 C WB_data [63:0] $end
$var wire 1 D PC_WriteEn $end
$var wire 1 E IFID_WriteEn $end
$var wire 2 F ForwardB [1:0] $end
$var wire 2 G ForwardA [1:0] $end
$var wire 1 H Control_Sel $end
$var wire 64 I BranchPC [63:0] $end
$var wire 64 J ALUinB [63:0] $end
$var wire 64 K ALUinA [63:0] $end
$var wire 64 L ALUB_in1_choice [63:0] $end
$var reg 64 M EXMEM_ALUout [63:0] $end
$var reg 5 N EXMEM_M [4:0] $end
$var reg 64 O EXMEM_PC [63:0] $end
$var reg 2 P EXMEM_WB [1:0] $end
$var reg 5 Q EXMEM_WReg [4:0] $end
$var reg 1 R EXMEM_Zero $end
$var reg 64 S EXMEM_rDataB [63:0] $end
$var reg 11 T IDEX_ALUfield [10:0] $end
$var reg 1 U IDEX_ALUop $end
$var reg 4 V IDEX_EX [3:0] $end
$var reg 5 W IDEX_M [4:0] $end
$var reg 64 X IDEX_PC [63:0] $end
$var reg 64 Y IDEX_SignExtender [63:0] $end
$var reg 2 Z IDEX_WB [1:0] $end
$var reg 5 [ IDEX_WReg [4:0] $end
$var reg 64 \ IDEX_rDataA [63:0] $end
$var reg 64 ] IDEX_rDataB [63:0] $end
$var reg 5 ^ IDEX_rm [4:0] $end
$var reg 5 _ IDEX_rn [4:0] $end
$var reg 64 ` IFID_PC [63:0] $end
$var reg 32 a IFID_instruction [31:0] $end
$var reg 32 b IFID_instruction_debug [31:0] $end
$var reg 64 c MEMWB_ALUout [63:0] $end
$var reg 2 d MEMWB_WB [1:0] $end
$var reg 5 e MEMWB_WReg [4:0] $end
$var reg 64 f MEMWB_rData [63:0] $end
$var reg 64 g currentpc [63:0] $end
$var reg 32 h instructionOut [31:0] $end
$scope module ALU $end
$var wire 4 i ALUCtrl [3:0] $end
$var wire 1 % Clk $end
$var wire 64 j BusB [63:0] $end
$var wire 64 k BusA [63:0] $end
$var reg 64 l BusW [63:0] $end
$var reg 1 - Zero $end
$upscope $end
$scope module ALUA $end
$var wire 1 % Clk $end
$var wire 1 m en $end
$var wire 64 n in1 [63:0] $end
$var wire 64 o in3 [63:0] $end
$var wire 64 p in2 [63:0] $end
$var wire 2 q ctrl [1:0] $end
$var reg 64 r out [63:0] $end
$upscope $end
$scope module ALUB $end
$var wire 1 % Clk $end
$var wire 1 s en $end
$var wire 64 t in1 [63:0] $end
$var wire 64 u in3 [63:0] $end
$var wire 64 v in2 [63:0] $end
$var wire 2 w ctrl [1:0] $end
$var reg 64 x out [63:0] $end
$upscope $end
$scope module ALUB_in1_src $end
$var wire 1 U ctrl $end
$var wire 64 y in1 [63:0] $end
$var wire 64 z in2 [63:0] $end
$var reg 64 { out [63:0] $end
$upscope $end
$scope module DataMemory $end
$var wire 64 | Address [63:0] $end
$var wire 1 % Clock $end
$var wire 1 } MemoryRead $end
$var wire 1 ~ MemoryWrite $end
$var wire 64 !" WriteData [63:0] $end
$var reg 64 "" ReadData [63:0] $end
$scope task initset $end
$var reg 64 #" addr [63:0] $end
$var reg 64 $" data [63:0] $end
$upscope $end
$upscope $end
$scope module FU $end
$var wire 1 %" Branching $end
$var wire 1 % Clk $end
$var wire 1 &" EXMEM_RegWrite $end
$var wire 5 '" EXMEM_WriteRegister [4:0] $end
$var wire 5 (" IDEX_rm [4:0] $end
$var wire 5 )" IDEX_rn [4:0] $end
$var wire 1 *" MEMWB_RegWrite $end
$var wire 5 +" MEMWB_WriteRegister [4:0] $end
$var reg 2 ," ForwardA [1:0] $end
$var reg 2 -" ForwardB [1:0] $end
$upscope $end
$scope module Memory_WB_Mux $end
$var wire 1 ." ctrl $end
$var wire 64 /" in1 [63:0] $end
$var wire 64 0" in2 [63:0] $end
$var reg 64 1" out [63:0] $end
$upscope $end
$scope module PCLogic $end
$var wire 1 R ALUZero $end
$var wire 1 2" Branch $end
$var wire 1 % Clk $end
$var wire 64 3" CurrPC [63:0] $end
$var wire 64 4" SignExtImm64 [63:0] $end
$var wire 1 5" Unconditional $end
$var wire 1 6" ZorNZ $end
$var wire 1 D WriteEn $end
$var reg 64 7" NextPC [63:0] $end
$upscope $end
$scope module RegisterFile $end
$var wire 64 8" BusW [63:0] $end
$var wire 1 % Clk $end
$var wire 5 9" RA [4:0] $end
$var wire 5 :" RB [4:0] $end
$var wire 5 ;" RW [4:0] $end
$var wire 1 <" RegWr $end
$var wire 64 =" BusB [63:0] $end
$var wire 64 >" BusA [63:0] $end
$var integer 32 ?" i [31:0] $end
$upscope $end
$scope module SignExtender $end
$var wire 1 % Clk $end
$var wire 26 @" Imm26 [25:0] $end
$var wire 2 A" shift [1:0] $end
$var wire 3 B" Ctrl [2:0] $end
$var reg 64 C" BusImm [63:0] $end
$upscope $end
$scope module branchPC $end
$var wire 1 % Clk $end
$var wire 64 D" CurrentPC [63:0] $end
$var wire 64 E" ExtendedImm [63:0] $end
$var reg 64 F" BranchPC [63:0] $end
$upscope $end
$scope module control $end
$var wire 1 % Clk $end
$var wire 11 G" opcode [10:0] $end
$var reg 4 H" aluop [3:0] $end
$var reg 1 @ alusrc $end
$var reg 1 ? branch $end
$var reg 1 ; mem2reg $end
$var reg 1 : memread $end
$var reg 1 9 memwrite $end
$var reg 1 5 reg2loc $end
$var reg 1 2 regwrite $end
$var reg 3 I" signop [2:0] $end
$var reg 1 . uncond_branch $end
$var reg 1 , zornz $end
$upscope $end
$scope module hdu $end
$var wire 1 % Clk $end
$var wire 1 J" IDEX_MemRead $end
$var wire 5 K" IDEX_rd [4:0] $end
$var wire 5 L" IFID_rd [4:0] $end
$var wire 5 M" IFID_rm [4:0] $end
$var wire 5 N" IFID_rn [4:0] $end
$var reg 1 E IFID_WriteEn $end
$var reg 1 D PC_WriteEn $end
$var reg 1 H Stall_flush $end
$upscope $end
$scope module imem $end
$var wire 64 O" Address [63:0] $end
$var reg 32 P" Data [31:0] $end
$upscope $end
$upscope $end
$scope task allPassed $end
$var reg 8 Q" numTests [7:0] $end
$var reg 8 R" passed [7:0] $end
$upscope $end
$scope task passTest $end
$var reg 64 S" actualOut [63:0] $end
$var reg 64 T" expectedOut [63:0] $end
$var reg 8 U" passed [7:0] $end
$var reg 257 V" testType [256:0] $end
$upscope $end
$upscope $end
$enddefinitions $end
#0
$dumpvars
bx V"
bx U"
bx T"
bx S"
bx R"
bx Q"
bx P"
bx O"
bx N"
bx M"
bx L"
bx K"
xJ"
bx I"
bx H"
bx G"
bx F"
bx E"
bx D"
bx C"
bx B"
bx A"
bx @"
b1000000 ?"
bx >"
bx ="
x<"
bx ;"
bx :"
bx 9"
bx 8"
bx 7"
x6"
x5"
bx 4"
bx 3"
x2"
bx 1"
bx 0"
bx /"
x."
bx -"
bx ,"
bx +"
x*"
bx )"
bx ("
bx '"
x&"
x%"
b0 $"
b100000 #"
bx ""
bx !"
x~
x}
bx |
bx {
bx z
bx y
bx x
bx w
bx v
bx u
bx t
1s
bx r
bx q
bx p
bx o
bx n
0m
bx l
bx k
bx j
bx i
bx h
bx g
bx f
bx e
bx d
bx c
bx b
bx a
bx `
bx _
bx ^
bx ]
bx \
bx [
bx Z
bx Y
bx X
bx W
bx V
xU
bx T
bx S
xR
bx Q
bx P
bx O
bx N
bx M
bx L
bx K
bx J
bx I
xH
bx G
bx F
xE
xD
bx C
bx B
bx A
x@
x?
bx >
bx =
bx <
x;
x:
x9
bx 8
bx 7
bx 6
x5
bx 4
bx 3
x2
bx 1
bx 0
bx /
x.
x-
x,
b0 +
b0 *
b0 )
b0 (
1'
b0 &
0%
bx $
bx #
bx "
bx !
$end
#60000
0J"
0H
1E
1D
b0 V
b0 i
b0 W
b0 [
b0 K"
0U
b0 Z
b0 F
b0 w
b0 -"
b0 G
b0 q
b0 ,"
1%
#120000
b1 *
b1 &
0%
#121000
0'
#180000
1%
#240000
b100 8
b100 7"
b10010001000000000000001111100001 <
b10010001000000000000001111100001 P"
b0 #
b0 g
b0 3"
b0 O"
b10 *
b10 &
0%
#241000
1'
#300000
b0 /
b0 B"
b0 I"
b10 B
b10 H"
0,
0.
0?
09
0:
12
0;
1@
05
b0 3
b0 ="
b0 4
b0 >"
b1 0
b1 :"
b1 N"
b0 =
b0 C"
b0 A"
0}
0~
02"
06"
05"
0&"
xJ"
b1 6
b1 L"
b11111 1
b11111 9"
b11111 M"
b10010001000 7
b10010001000 G"
b1000000000000001111100001 @"
b0 Q
b0 '"
bx O
bx 4"
b0 N
b0 P
b10010001000 T
bx V
bx i
bx W
bx [
bx K"
xU
bx Z
b10010001000000000000001111100001 "
b10010001000000000000001111100001 b
b10010001000000000000001111100001 a
b0 `
1%
#360000
b1000 8
b1000 7"
b10010001000000000000011111100010 <
b10010001000000000000011111100010 P"
b10010001000000000000001111100001 !
b10010001000000000000001111100001 h
b100 #
b100 g
b100 3"
b100 O"
b11 *
b11 &
0%
#420000
1-
b0 A
b0 l
b1 =
b1 C"
b0 L
b0 x
b0 y
b0 K
b0 k
b0 r
b0 I
b0 F"
b0 J
b0 j
b0 {
x%"
b10 0
b10 :"
b10 N"
0*"
0<"
0."
x}
x~
x2"
x6"
x5"
x&"
0J"
b10 6
b10 L"
b1000000000000011111100010 @"
b0 e
b0 +"
b0 ;"
b0 d
bx Q
bx '"
bx O
bx 4"
bx N
bx P
b1 _
b1 )"
b11111 ^
b11111 ("
b0 Y
b0 z
b0 E"
b0 ]
b0 t
b0 \
b0 n
b0 X
b0 D"
b10 V
b10 i
b0 W
b1 [
b1 K"
1U
b1 Z
b10010001000000000000011111100010 "
b10010001000000000000011111100010 b
b10010001000000000000011111100010 a
b100 `
1%
#480000
b1100 8
b1100 7"
b10010001000000000000001111100011 <
b10010001000000000000001111100011 P"
b10010001000000000000011111100010 !
b10010001000000000000011111100010 h
b1000 #
b1000 g
b1000 3"
b1000 O"
b100 *
b100 &
0%
#540000
0-
b1 A
b1 l
b0 =
b0 C"
b1 J
b1 j
b1 {
b1000 I
b1000 F"
0%"
b11 0
b11 :"
b11 N"
x*"
x<"
x."
0}
0~
02"
06"
05"
1&"
b11 6
b11 L"
b1000000000000001111100011 @"
bx e
bx +"
bx ;"
bx d
b1 Q
b1 '"
b0 S
b0 !"
b0 M
b0 o
b0 u
b0 |
1R
b0 O
b0 4"
b0 N
b1 P
b10 _
b10 )"
b1 Y
b1 z
b1 E"
b100 X
b100 D"
b10 [
b10 K"
b10010001000000000000001111100011 "
b10010001000000000000001111100011 b
b10010001000000000000001111100011 a
b1000 `
1%
#600000
b10000 8
b10000 7"
b10001011000000100000000000100001 <
b10001011000000100000000000100001 P"
b10010001000000000000001111100011 !
b10010001000000000000001111100011 h
b1100 #
b1100 g
b1100 3"
b1100 O"
b101 *
b101 &
0%
#660000
1-
b0 A
b0 l
0@
b10000000 =
b10000000 C"
b0 $
b0 C
b0 p
b0 v
b0 1"
b0 8"
b0 J
b0 j
b0 {
b10 0
b10 :"
b10 N"
1*"
1<"
0."
b1 6
b1 L"
b1 1
b1 9"
b1 M"
b10001011000 7
b10001011000 G"
b11000000100000000000100001 @"
b1 e
b1 +"
b1 ;"
b0 c
b0 /"
b1 d
b10 Q
b10 '"
b1 M
b1 o
b1 u
b1 |
0R
b1000 O
b1000 4"
b11 _
b11 )"
b10001011000 T
b0 Y
b0 z
b0 E"
b1000 X
b1000 D"
b11 [
b11 K"
b10001011000000100000000000100001 "
b10001011000000100000000000100001 b
b10001011000000100000000000100001 a
b1100 `
1%
#720000
b10100 8
b10100 7"
b10001011000000100000000000100010 <
b10001011000000100000000000100010 P"
b10001011000000100000000000100001 !
b10001011000000100000000000100001 h
b10000 #
b10000 g
b10000 3"
b10000 O"
b110 *
b110 &
0%
#780000
0-
b1 A
b1 l
b1 J
b1 j
b1 {
b1 L
b1 x
b1 y
b1 $
b1 C
b1 p
b1 v
b1 1"
b1 8"
b1000001100 I
b1000001100 F"
b1 F
b1 w
b1 -"
b10 6
b10 L"
b11000000100000000000100010 @"
b10 e
b10 +"
b10 ;"
b1 c
b1 /"
b11 Q
b11 '"
b0 M
b0 o
b0 u
b0 |
1R
b1000 O
b1000 4"
b10 _
b10 )"
b1 ^
b1 ("
b10000000 Y
b10000000 z
b10000000 E"
b1100 X
b1100 D"
b1 [
b1 K"
0U
b10001011000000100000000000100010 "
b10001011000000100000000000100010 b
b10001011000000100000000000100010 a
b10000 `
1%
#840000
b11000 8
b11000 7"
b10110100100000000000000001000011 <
b10110100100000000000000001000011 P"
b10001011000000100000000000100010 !
b10001011000000100000000000100010 h
b10100 #
b10100 g
b10100 3"
b10100 O"
b111 *
b111 &
0%
#841000
b1 3
b1 ="
#900000
b10 A
b10 l
b1 K
b1 k
b1 r
b11 /
b11 B"
b11 I"
b111 B
b111 H"
1,
1?
02
x;
15
b1111111111111111111111111111111111111111111111111111111111111110 =
b1111111111111111111111111111111111111111111111111111111111111110 C"
b0 $
b0 C
b0 p
b0 v
b0 1"
b0 8"
b1000010000 I
b1000010000 F"
b0 3
b0 ="
b1 4
b1 >"
b11 0
b11 :"
b11 N"
b0 F
b0 w
b0 -"
b10 G
b10 q
b10 ,"
b11 6
b11 L"
b10 1
b10 9"
b10 M"
b10110100100 7
b10110100100 G"
b100000000000000001000011 @"
b11 e
b11 +"
b11 ;"
b0 c
b0 /"
b1 Q
b1 '"
b1 M
b1 o
b1 u
b1 |
0R
b1000001100 O
b1000001100 4"
b10110100100 T
b1 ]
b1 t
b10000 X
b10000 D"
b10 [
b10 K"
b10110100100000000000000001000011 "
b10110100100000000000000001000011 b
b10110100100000000000000001000011 a
b10100 `
1%
#960000
b11100 8
b11100 7"
bx <
bx P"
b10110100100000000000000001000011 !
b10110100100000000000000001000011 h
b11000 #
b11000 g
b11000 3"
b11000 O"
b1000 *
b1000 &
0%
#1020000
1-
b0 J
b0 j
b0 {
b0 /
b0 B"
b0 I"
b0 B
b0 H"
0,
0?
12
0;
05
bx =
bx C"
b1 $
b1 C
b1 p
b1 v
b1 1"
b1 8"
b0 L
b0 x
b0 y
b10 K
b10 k
b10 r
b1100 I
b1100 F"
b0 A
b0 l
1%"
bx 3
bx ="
bx 4
bx >"
bx 0
bx :"
bx N"
bx A"
bx 6
bx L"
bx 1
bx 9"
bx M"
bx 7
bx G"
bx @"
b1 e
b1 +"
b1 ;"
b1 c
b1 /"
b10 Q
b10 '"
b1 S
b1 !"
b10 M
b10 o
b10 u
b10 |
b1000010000 O
b1000010000 4"
b11 _
b11 )"
b10 ^
b10 ("
bx T
b1111111111111111111111111111111111111111111111111111111111111110 Y
b1111111111111111111111111111111111111111111111111111111111111110 z
b1111111111111111111111111111111111111111111111111111111111111110 E"
b0 ]
b0 t
b1 \
b1 n
b10100 X
b10100 D"
b111 V
b111 i
b10100 W
b11 [
b11 K"
bx0 Z
bx "
bx b
bx a
b11000 `
1%
#1080000
b100000 8
b100000 7"
bx !
bx h
b11100 #
b11100 g
b11100 3"
b11100 O"
b1001 *
b1001 &
0%
#1140000
x-
bx A
bx l
bx J
bx j
bx {
b10 $
b10 C
b10 p
b10 v
b10 1"
b10 8"
bx L
bx x
bx y
bx I
bx F"
1%"
b1100 8
b1100 7"
12"
16"
0&"
bx K
bx k
bx r
b10 e
b10 +"
b10 ;"
b10 c
b10 /"
b11 Q
b11 '"
b0 S
b0 !"
b0 M
b0 o
b0 u
b0 |
1R
b1100 O
b1100 4"
b10100 N
bx0 P
bx _
bx )"
bx ^
bx ("
bx Y
bx z
bx E"
bx ]
bx t
bx \
bx n
b11000 X
b11000 D"
b0 V
b0 i
b0 W
bx [
bx K"
b1 Z
b11100 `
b0 G
b0 q
b0 ,"
1%
#1200000
b10001011000000100000000000100001 <
b10001011000000100000000000100001 P"
b1100 #
b1100 g
b1100 3"
b1100 O"
b1010 *
b1010 &
0%
#1260000
b10 B
b10 H"
b10000000 =
b10000000 C"
0%"
b10 3
b10 ="
b1 4
b1 >"
b10 0
b10 :"
b10 N"
b0 A"
0*"
0<"
x."
b10000 8
b10000 7"
02"
06"
1&"
b1 6
b1 L"
b1 1
b1 9"
b1 M"
b10001011000 7
b10001011000 G"
b11000000100000000000100001 @"
b11 e
b11 +"
b11 ;"
b0 c
b0 /"
bx0 d
bx O
bx 4"
bx Q
bx '"
bx S
bx !"
bx M
bx o
bx u
bx |
xR
b0 N
b1 P
b10001011000 T
b11100 X
b11100 D"
b10001011000000100000000000100001 "
b10001011000000100000000000100001 b
b10001011000000100000000000100001 a
b1100 `
1%
#1320000
b10100 8
b10100 7"
b10001011000000100000000000100010 <
b10001011000000100000000000100010 P"
b10001011000000100000000000100001 !
b10001011000000100000000000100001 h
b10000 #
b10000 g
b10000 3"
b10000 O"
b1011 *
b1011 &
0%
#1380000
0-
b11 A
b11 l
b10 J
b10 j
b10 {
b10 L
b10 x
b10 y
b1 K
b1 k
b1 r
bx $
bx C
bx p
bx v
bx 1"
bx 8"
b1000001100 I
b1000001100 F"
1*"
1<"
0."
b10 6
b10 L"
b11000000100000000000100010 @"
bx e
bx +"
bx ;"
bx c
bx /"
b1 d
bx O
bx 4"
b10 _
b10 )"
b1 ^
b1 ("
b10000000 Y
b10000000 z
b10000000 E"
b10 ]
b10 t
b1 \
b1 n
b1100 X
b1100 D"
b10 V
b10 i
b1 [
b1 K"
b10001011000000100000000000100010 "
b10001011000000100000000000100010 b
b10001011000000100000000000100010 a
b10000 `
b0 F
b0 w
b0 -"
b0 G
b0 q
b0 ,"
1%
#1440000
b11000 8
b11000 7"
b10110100100000000000000001000011 <
b10110100100000000000000001000011 P"
b10001011000000100000000000100010 !
b10001011000000100000000000100010 h
b10100 #
b10100 g
b10100 3"
b10100 O"
b1100 *
b1100 &
0%
#1500000
b101 A
b101 l
b11 K
b11 k
b11 r
b11 /
b11 B"
b11 I"
b111 B
b111 H"
1,
1?
02
x;
15
b1111111111111111111111111111111111111111111111111111111111111110 =
b1111111111111111111111111111111111111111111111111111111111111110 C"
b1000010000 I
b1000010000 F"
b0 3
b0 ="
b10 4
b10 >"
b11 0
b11 :"
b11 N"
b10 G
b10 q
b10 ,"
b11 6
b11 L"
b10 1
b10 9"
b10 M"
b10110100100 7
b10110100100 G"
b100000000000000001000011 @"
b1 Q
b1 '"
b10 S
b10 !"
b11 M
b11 o
b11 u
b11 |
0R
b1000001100 O
b1000001100 4"
b10110100100 T
b10000 X
b10000 D"
b10 [
b10 K"
b10110100100000000000000001000011 "
b10110100100000000000000001000011 b
b10110100100000000000000001000011 a
b10100 `
1%
#1560000
b11100 8
b11100 7"
bx <
bx P"
b10110100100000000000000001000011 !
b10110100100000000000000001000011 h
b11000 #
b11000 g
b11000 3"
b11000 O"
b1101 *
b1101 &
0%
#1620000
1-
b0 J
b0 j
b0 {
b0 /
b0 B"
b0 I"
b0 B
b0 H"
0,
0?
12
0;
05
bx =
bx C"
b11 $
b11 C
b11 p
b11 v
b11 1"
b11 8"
b0 L
b0 x
b0 y
b101 K
b101 k
b101 r
b1100 I
b1100 F"
b0 A
b0 l
1%"
bx 3
bx ="
bx 4
bx >"
bx 0
bx :"
bx N"
bx A"
bx 6
bx L"
bx 1
bx 9"
bx M"
bx 7
bx G"
bx @"
b1 e
b1 +"
b1 ;"
b11 c
b11 /"
b10 Q
b10 '"
b101 M
b101 o
b101 u
b101 |
b1000010000 O
b1000010000 4"
b11 _
b11 )"
b10 ^
b10 ("
bx T
b1111111111111111111111111111111111111111111111111111111111111110 Y
b1111111111111111111111111111111111111111111111111111111111111110 z
b1111111111111111111111111111111111111111111111111111111111111110 E"
b0 ]
b0 t
b10 \
b10 n
b10100 X
b10100 D"
b111 V
b111 i
b10100 W
b11 [
b11 K"
bx0 Z
bx "
bx b
bx a
b11000 `
1%
#1680000
b100000 8
b100000 7"
bx !
bx h
b11100 #
b11100 g
b11100 3"
b11100 O"
b1110 *
b1110 &
0%
#1740000
x-
bx A
bx l
bx J
bx j
bx {
b101 $
b101 C
b101 p
b101 v
b101 1"
b101 8"
bx L
bx x
bx y
bx I
bx F"
1%"
b1100 8
b1100 7"
12"
16"
0&"
bx K
bx k
bx r
b10 e
b10 +"
b10 ;"
b101 c
b101 /"
b11 Q
b11 '"
b0 S
b0 !"
b0 M
b0 o
b0 u
b0 |
1R
b1100 O
b1100 4"
b10100 N
bx0 P
bx _
bx )"
bx ^
bx ("
bx Y
bx z
bx E"
bx ]
bx t
bx \
bx n
b11000 X
b11000 D"
b0 V
b0 i
b0 W
bx [
bx K"
b1 Z
b11100 `
b0 G
b0 q
b0 ,"
1%
#1800000
b10001011000000100000000000100001 <
b10001011000000100000000000100001 P"
b1100 #
b1100 g
b1100 3"
b1100 O"
b1111 *
b1111 &
0%
#1860000
b10 B
b10 H"
b10000000 =
b10000000 C"
0%"
b101 3
b101 ="
b11 4
b11 >"
b10 0
b10 :"
b10 N"
b0 A"
0*"
0<"
x."
b10000 8
b10000 7"
02"
06"
1&"
b1 6
b1 L"
b1 1
b1 9"
b1 M"
b10001011000 7
b10001011000 G"
b11000000100000000000100001 @"
b11 e
b11 +"
b11 ;"
b0 c
b0 /"
bx0 d
bx O
bx 4"
bx Q
bx '"
bx S
bx !"
bx M
bx o
bx u
bx |
xR
b0 N
b1 P
b10001011000 T
b11100 X
b11100 D"
b10001011000000100000000000100001 "
b10001011000000100000000000100001 b
b10001011000000100000000000100001 a
b1100 `
1%
#1920000
b10100 8
b10100 7"
b10001011000000100000000000100010 <
b10001011000000100000000000100010 P"
b10001011000000100000000000100001 !
b10001011000000100000000000100001 h
b10000 #
b10000 g
b10000 3"
b10000 O"
b10000 *
b10000 &
0%
#1980000
0-
b1000 A
b1000 l
b101 J
b101 j
b101 {
b101 L
b101 x
b101 y
b11 K
b11 k
b11 r
bx $
bx C
bx p
bx v
bx 1"
bx 8"
b1000001100 I
b1000001100 F"
1*"
1<"
0."
b10 6
b10 L"
b11000000100000000000100010 @"
bx e
bx +"
bx ;"
bx c
bx /"
b1 d
bx O
bx 4"
b10 _
b10 )"
b1 ^
b1 ("
b10000000 Y
b10000000 z
b10000000 E"
b101 ]
b101 t
b11 \
b11 n
b1100 X
b1100 D"
b10 V
b10 i
b1 [
b1 K"
b10001011000000100000000000100010 "
b10001011000000100000000000100010 b
b10001011000000100000000000100010 a
b10000 `
b0 F
b0 w
b0 -"
b0 G
b0 q
b0 ,"
1%
#2040000
b11000 8
b11000 7"
b10110100100000000000000001000011 <
b10110100100000000000000001000011 P"
b10001011000000100000000000100010 !
b10001011000000100000000000100010 h
b10100 #
b10100 g
b10100 3"
b10100 O"
b10001 *
b10001 &
0%
#2100000
b1101 A
b1101 l
b1000 K
b1000 k
b1000 r
b11 /
b11 B"
b11 I"
b111 B
b111 H"
1,
1?
02
x;
15
b1111111111111111111111111111111111111111111111111111111111111110 =
b1111111111111111111111111111111111111111111111111111111111111110 C"
b1000010000 I
b1000010000 F"
b0 3
b0 ="
b101 4
b101 >"
b11 0
b11 :"
b11 N"
b10 G
b10 q
b10 ,"
b11 6
b11 L"
b10 1
b10 9"
b10 M"
b10110100100 7
b10110100100 G"
b100000000000000001000011 @"
b1 Q
b1 '"
b101 S
b101 !"
b1000 M
b1000 o
b1000 u
b1000 |
0R
b1000001100 O
b1000001100 4"
b10110100100 T
b10000 X
b10000 D"
b10 [
b10 K"
b10110100100000000000000001000011 "
b10110100100000000000000001000011 b
b10110100100000000000000001000011 a
b10100 `
1%
#2160000
b11100 8
b11100 7"
bx <
bx P"
b10110100100000000000000001000011 !
b10110100100000000000000001000011 h
b11000 #
b11000 g
b11000 3"
b11000 O"
b10010 *
b10010 &
0%
#2220000
1-
b0 J
b0 j
b0 {
b0 /
b0 B"
b0 I"
b0 B
b0 H"
0,
0?
12
0;
05
bx =
bx C"
b1000 $
b1000 C
b1000 p
b1000 v
b1000 1"
b1000 8"
b0 L
b0 x
b0 y
b1101 K
b1101 k
b1101 r
b1100 I
b1100 F"
b0 A
b0 l
1%"
bx 3
bx ="
bx 4
bx >"
bx 0
bx :"
bx N"
bx A"
bx 6
bx L"
bx 1
bx 9"
bx M"
bx 7
bx G"
bx @"
b1 e
b1 +"
b1 ;"
b1000 c
b1000 /"
b10 Q
b10 '"
b1101 M
b1101 o
b1101 u
b1101 |
b1000010000 O
b1000010000 4"
b11 _
b11 )"
b10 ^
b10 ("
bx T
b1111111111111111111111111111111111111111111111111111111111111110 Y
b1111111111111111111111111111111111111111111111111111111111111110 z
b1111111111111111111111111111111111111111111111111111111111111110 E"
b0 ]
b0 t
b101 \
b101 n
b10100 X
b10100 D"
b111 V
b111 i
b10100 W
b11 [
b11 K"
bx0 Z
bx "
bx b
bx a
b11000 `
1%
#2280000
b100000 8
b100000 7"
bx !
bx h
b11100 #
b11100 g
b11100 3"
b11100 O"
b10011 *
b10011 &
0%
#2340000
x-
bx A
bx l
bx J
bx j
bx {
b1101 $
b1101 C
b1101 p
b1101 v
b1101 1"
b1101 8"
bx L
bx x
bx y
bx I
bx F"
1%"
b1100 8
b1100 7"
12"
16"
0&"
bx K
bx k
bx r
b10 e
b10 +"
b10 ;"
b1101 c
b1101 /"
b11 Q
b11 '"
b0 S
b0 !"
b0 M
b0 o
b0 u
b0 |
1R
b1100 O
b1100 4"
b10100 N
bx0 P
bx _
bx )"
bx ^
bx ("
bx Y
bx z
bx E"
bx ]
bx t
bx \
bx n
b11000 X
b11000 D"
b0 V
b0 i
b0 W
bx [
bx K"
b1 Z
b11100 `
b0 G
b0 q
b0 ,"
1%
#2400000
b10001011000000100000000000100001 <
b10001011000000100000000000100001 P"
b1100 #
b1100 g
b1100 3"
b1100 O"
b10100 *
b10100 &
0%
#2460000
b10 B
b10 H"
b10000000 =
b10000000 C"
0%"
b1101 3
b1101 ="
b1000 4
b1000 >"
b10 0
b10 :"
b10 N"
b0 A"
0*"
0<"
x."
b10000 8
b10000 7"
02"
06"
1&"
b1 6
b1 L"
b1 1
b1 9"
b1 M"
b10001011000 7
b10001011000 G"
b11000000100000000000100001 @"
b11 e
b11 +"
b11 ;"
b0 c
b0 /"
bx0 d
bx O
bx 4"
bx Q
bx '"
bx S
bx !"
bx M
bx o
bx u
bx |
xR
b0 N
b1 P
b10001011000 T
b11100 X
b11100 D"
b10001011000000100000000000100001 "
b10001011000000100000000000100001 b
b10001011000000100000000000100001 a
b1100 `
1%
#2520000
b10100 8
b10100 7"
b10001011000000100000000000100010 <
b10001011000000100000000000100010 P"
b10001011000000100000000000100001 !
b10001011000000100000000000100001 h
b10000 #
b10000 g
b10000 3"
b10000 O"
b10101 *
b10101 &
0%
#2580000
0-
b10101 A
b10101 l
b1101 J
b1101 j
b1101 {
b1101 L
b1101 x
b1101 y
b1000 K
b1000 k
b1000 r
bx $
bx C
bx p
bx v
bx 1"
bx 8"
b1000001100 I
b1000001100 F"
1*"
1<"
0."
b10 6
b10 L"
b11000000100000000000100010 @"
bx e
bx +"
bx ;"
bx c
bx /"
b1 d
bx O
bx 4"
b10 _
b10 )"
b1 ^
b1 ("
b10000000 Y
b10000000 z
b10000000 E"
b1101 ]
b1101 t
b1000 \
b1000 n
b1100 X
b1100 D"
b10 V
b10 i
b1 [
b1 K"
b10001011000000100000000000100010 "
b10001011000000100000000000100010 b
b10001011000000100000000000100010 a
b10000 `
b0 F
b0 w
b0 -"
b0 G
b0 q
b0 ,"
1%
#2640000
b11000 8
b11000 7"
b10110100100000000000000001000011 <
b10110100100000000000000001000011 P"
b10001011000000100000000000100010 !
b10001011000000100000000000100010 h
b10100 #
b10100 g
b10100 3"
b10100 O"
b10110 *
b10110 &
0%
#2700000
b100010 A
b100010 l
b10101 K
b10101 k
b10101 r
b11 /
b11 B"
b11 I"
b111 B
b111 H"
1,
1?
02
x;
15
b1111111111111111111111111111111111111111111111111111111111111110 =
b1111111111111111111111111111111111111111111111111111111111111110 C"
b1000010000 I
b1000010000 F"
b0 3
b0 ="
b1101 4
b1101 >"
b11 0
b11 :"
b11 N"
b10 G
b10 q
b10 ,"
b11 6
b11 L"
b10 1
b10 9"
b10 M"
b10110100100 7
b10110100100 G"
b100000000000000001000011 @"
b1 Q
b1 '"
b1101 S
b1101 !"
b10101 M
b10101 o
b10101 u
b10101 |
0R
b1000001100 O
b1000001100 4"
b10110100100 T
b10000 X
b10000 D"
b10 [
b10 K"
b10110100100000000000000001000011 "
b10110100100000000000000001000011 b
b10110100100000000000000001000011 a
b10100 `
1%
