singlecycle.vcd
$date
	Fri Jan  8 12:51:24 2021
$end
$version
	Icarus Verilog
$end
$timescale
	1ps
$end
$scope module ProcTest_v $end
$var wire 32 ! instruction [31:0] $end
$var wire 32 " first_instruction [31:0] $end
$var wire 64 # currentPC [63:0] $end
$var wire 64 $ WB_data [63:0] $end
$var reg 1 % CLK $end
$var reg 8 & ClkNum [7:0] $end
$var reg 1 ' Reset_L $end
$var reg 8 ( passed [7:0] $end
$var reg 64 ) startPC [63:0] $end
$var reg 16 * watchdog [15:0] $end
$scope module uut $end
$var wire 1 % CLK $end
$var wire 1 ' resetl $end
$var wire 64 + startpc [63:0] $end
$var wire 1 , zero $end
$var wire 1 - uncond_branch $end
$var wire 3 . signop [2:0] $end
$var wire 5 / rn [4:0] $end
$var wire 5 0 rm [4:0] $end
$var wire 1 1 regwrite $end
$var wire 64 2 regoutB [63:0] $end
$var wire 64 3 regoutA [63:0] $end
$var wire 1 4 reg2loc $end
$var wire 5 5 rd [4:0] $end
$var wire 11 6 opcode [10:0] $end
$var wire 64 7 nextPC [63:0] $end
$var wire 1 8 memwrite $end
$var wire 1 9 memread $end
$var wire 1 : mem2reg $end
$var wire 32 ; instruction [31:0] $end
$var wire 64 < extimm [63:0] $end
$var wire 64 = dmemout [63:0] $end
$var wire 1 > branch $end
$var wire 1 ? alusrc $end
$var wire 64 @ aluout [63:0] $end
$var wire 4 A aluctrl [3:0] $end
$var wire 64 B WB_data [63:0] $end
$var wire 1 C PC_WriteEn $end
$var wire 1 D IFID_WriteEn $end
$var wire 2 E ForwardB [1:0] $end
$var wire 2 F ForwardA [1:0] $end
$var wire 1 G Control_Sel $end
$var wire 64 H BranchPC [63:0] $end
$var wire 64 I ALUinB [63:0] $end
$var wire 64 J ALUinA [63:0] $end
$var wire 64 K ALUB_in1_choice [63:0] $end
$var reg 64 L EXMEM_ALUout [63:0] $end
$var reg 4 M EXMEM_M [3:0] $end
$var reg 64 N EXMEM_PC [63:0] $end
$var reg 2 O EXMEM_WB [1:0] $end
$var reg 5 P EXMEM_WReg [4:0] $end
$var reg 1 Q EXMEM_Zero $end
$var reg 64 R EXMEM_rDataB [63:0] $end
$var reg 11 S IDEX_ALUfield [10:0] $end
$var reg 1 T IDEX_ALUop $end
$var reg 4 U IDEX_EX [3:0] $end
$var reg 4 V IDEX_M [3:0] $end
$var reg 64 W IDEX_PC [63:0] $end
$var reg 64 X IDEX_SignExtender [63:0] $end
$var reg 2 Y IDEX_WB [1:0] $end
$var reg 5 Z IDEX_WReg [4:0] $end
$var reg 64 [ IDEX_rDataA [63:0] $end
$var reg 64 \ IDEX_rDataB [63:0] $end
$var reg 5 ] IDEX_rm [4:0] $end
$var reg 5 ^ IDEX_rn [4:0] $end
$var reg 64 _ IFID_PC [63:0] $end
$var reg 32 ` IFID_instruction [31:0] $end
$var reg 32 a IFID_instruction_debug [31:0] $end
$var reg 64 b MEMWB_ALUout [63:0] $end
$var reg 2 c MEMWB_WB [1:0] $end
$var reg 5 d MEMWB_WReg [4:0] $end
$var reg 64 e MEMWB_rData [63:0] $end
$var reg 64 f currentpc [63:0] $end
$var reg 32 g instructionOut [31:0] $end
$scope module ALU $end
$var wire 4 h ALUCtrl [3:0] $end
$var wire 1 % Clk $end
$var wire 1 , Zero $end
$var wire 64 i BusB [63:0] $end
$var wire 64 j BusA [63:0] $end
$var reg 64 k BusW [63:0] $end
$upscope $end
$scope module ALUA $end
$var wire 1 % Clk $end
$var wire 1 l en $end
$var wire 64 m in1 [63:0] $end
$var wire 64 n in3 [63:0] $end
$var wire 64 o in2 [63:0] $end
$var wire 2 p ctrl [1:0] $end
$var reg 64 q out [63:0] $end
$upscope $end
$scope module ALUB $end
$var wire 1 % Clk $end
$var wire 1 r en $end
$var wire 64 s in1 [63:0] $end
$var wire 64 t in3 [63:0] $end
$var wire 64 u in2 [63:0] $end
$var wire 2 v ctrl [1:0] $end
$var reg 64 w out [63:0] $end
$upscope $end
$scope module ALUB_in1_src $end
$var wire 1 T ctrl $end
$var wire 64 x in1 [63:0] $end
$var wire 64 y in2 [63:0] $end
$var reg 64 z out [63:0] $end
$upscope $end
$scope module DataMemory $end
$var wire 64 { Address [63:0] $end
$var wire 1 % Clock $end
$var wire 1 | MemoryRead $end
$var wire 1 } MemoryWrite $end
$var wire 64 ~ WriteData [63:0] $end
$var reg 64 !" ReadData [63:0] $end
$scope task initset $end
$var reg 64 "" addr [63:0] $end
$var reg 64 #" data [63:0] $end
$upscope $end
$upscope $end
$scope module FU $end
$var wire 1 $" Branching $end
$var wire 1 % Clk $end
$var wire 1 %" EXMEM_RegWrite $end
$var wire 5 &" EXMEM_WriteRegister [4:0] $end
$var wire 5 '" IDEX_rm [4:0] $end
$var wire 5 (" IDEX_rn [4:0] $end
$var wire 1 )" MEMWB_RegWrite $end
$var wire 5 *" MEMWB_WriteRegister [4:0] $end
$var reg 2 +" ForwardA [1:0] $end
$var reg 2 ," ForwardB [1:0] $end
$upscope $end
$scope module Memory_WB_Mux $end
$var wire 1 -" ctrl $end
$var wire 64 ." in1 [63:0] $end
$var wire 64 /" in2 [63:0] $end
$var reg 64 0" out [63:0] $end
$upscope $end
$scope module PCLogic $end
$var wire 1 Q ALUZero $end
$var wire 1 1" Branch $end
$var wire 1 % Clk $end
$var wire 64 2" CurrPC [63:0] $end
$var wire 64 3" SignExtImm64 [63:0] $end
$var wire 1 4" Unconditional $end
$var wire 1 C WriteEn $end
$var reg 64 5" NextPC [63:0] $end
$upscope $end
$scope module RegisterFile $end
$var wire 64 6" BusW [63:0] $end
$var wire 1 % Clk $end
$var wire 5 7" RA [4:0] $end
$var wire 5 8" RB [4:0] $end
$var wire 5 9" RW [4:0] $end
$var wire 1 :" RegWr $end
$var wire 64 ;" BusB [63:0] $end
$var wire 64 <" BusA [63:0] $end
$var integer 32 =" i [31:0] $end
$upscope $end
$scope module SignExtender $end
$var wire 1 % Clk $end
$var wire 26 >" Imm26 [25:0] $end
$var wire 2 ?" shift [1:0] $end
$var wire 3 @" Ctrl [2:0] $end
$var reg 64 A" BusImm [63:0] $end
$upscope $end
$scope module branchPC $end
$var wire 1 % Clk $end
$var wire 64 B" CurrentPC [63:0] $end
$var wire 64 C" ExtendedImm [63:0] $end
$var reg 64 D" BranchPC [63:0] $end
$upscope $end
$scope module control $end
$var wire 1 % Clk $end
$var wire 11 E" opcode [10:0] $end
$var reg 4 F" aluop [3:0] $end
$var reg 1 ? alusrc $end
$var reg 1 > branch $end
$var reg 1 : mem2reg $end
$var reg 1 9 memread $end
$var reg 1 8 memwrite $end
$var reg 1 4 reg2loc $end
$var reg 1 1 regwrite $end
$var reg 3 G" signop [2:0] $end
$var reg 1 - uncond_branch $end
$upscope $end
$scope module hdu $end
$var wire 1 % Clk $end
$var wire 1 H" IDEX_MemRead $end
$var wire 5 I" IDEX_rd [4:0] $end
$var wire 5 J" IFID_rd [4:0] $end
$var wire 5 K" IFID_rm [4:0] $end
$var wire 5 L" IFID_rn [4:0] $end
$var reg 1 D IFID_WriteEn $end
$var reg 1 C PC_WriteEn $end
$var reg 1 G Stall_flush $end
$upscope $end
$scope module imem $end
$var wire 64 M" Address [63:0] $end
$var reg 32 N" Data [31:0] $end
$upscope $end
$upscope $end
$scope task allPassed $end
$var reg 8 O" numTests [7:0] $end
$var reg 8 P" passed [7:0] $end
$upscope $end
$scope task passTest $end
$var reg 64 Q" actualOut [63:0] $end
$var reg 64 R" expectedOut [63:0] $end
$var reg 8 S" passed [7:0] $end
$var reg 257 T" testType [256:0] $end
$upscope $end
$upscope $end
$enddefinitions $end
#0
$dumpvars
bx T"
bx S"
bx R"
bx Q"
bx P"
bx O"
bx N"
bx M"
bx L"
bx K"
bx J"
bx I"
xH"
bx G"
bx F"
bx E"
bx D"
bx C"
bx B"
b0 A"
bx @"
bx ?"
bx >"
b1000000 ="
bx <"
bx ;"
x:"
bx 9"
bx 8"
bx 7"
bx 6"
bx 5"
x4"
bx 3"
bx 2"
x1"
bx 0"
bx /"
bx ."
x-"
bx ,"
bx +"
bx *"
x)"
bx ("
bx '"
bx &"
x%"
x$"
b0 #"
b100000 ""
bx !"
bx ~
x}
x|
bx {
bx z
bx y
bx x
bx w
bx v
bx u
bx t
bx s
1r
bx q
bx p
bx o
bx n
bx m
0l
bx k
bx j
bx i
bx h
bx g
bx f
bx e
bx d
bx c
bx b
bx a
bx `
bx _
bx ^
bx ]
bx \
bx [
bx Z
bx Y
bx X
bx W
bx V
bx U
xT
bx S
bx R
xQ
bx P
bx O
bx N
bx M
bx L
bx K
bx J
bx I
bx H
xG
bx F
bx E
xD
xC
bx B
bx A
bx @
x?
x>
bx =
b0 <
bx ;
x:
x9
x8
bx 7
bx 6
bx 5
x4
bx 3
bx 2
x1
bx 0
bx /
bx .
x-
x,
b0 +
b0 *
b0 )
b0 (
1'
b0 &
0%
bx $
bx #
bx "
bx !
$end
#60000
0H"
0G
1D
1C
b0 X
b0 y
b0 C"
b0 U
b0 h
bx000 V
b0 Z
b0 I"
0T
b0 Y
b0 E
b0 v
b0 ,"
b0 F
b0 p
b0 +"
1%
#120000
b1 *
b1 &
0%
#121000
0'
#180000
1%
#240000
b10010001000000000000001111100001 ;
b10010001000000000000001111100001 N"
b0 #
b0 f
b0 2"
b0 M"
b10 *
b10 &
0%
#241000
1'
#300000
b0 .
b0 @"
b0 G"
b10 A
b10 F"
0-
0>
08
09
11
0:
1?
04
b0 2
b0 ;"
b0 3
b0 <"
b1 /
b1 8"
b1 L"
b0 ?"
0|
0}
01"
0%"
xH"
b1 5
b1 J"
b11111 0
b11111 7"
b11111 K"
b10010001000 6
b10010001000 E"
b1000000000000001111100001 >"
b0 P
b0 &"
bx000 M
b0 O
b10010001000 S
bx U
bx h
bx V
bx Z
bx I"
xT
bx Y
b10010001000000000000001111100001 "
b10010001000000000000001111100001 a
b10010001000000000000001111100001 `
b0 _
b100 7
b100 5"
1%
#360000
b10010001000000000000011111100010 ;
b10010001000000000000011111100010 N"
b10010001000000000000001111100001 !
b10010001000000000000001111100001 g
b100 #
b100 f
b100 2"
b100 M"
b11 *
b11 &
0%
#420000
1,
b0 @
b0 k
b0 K
b0 w
b0 x
b0 J
b0 j
b0 q
b0 H
b0 D"
b0 I
b0 i
b0 z
b10 /
b10 8"
b10 L"
0)"
0:"
0-"
x|
x}
x1"
x%"
0H"
b10 5
b10 J"
b1000000000000011111100010 >"
b0 d
b0 *"
b0 9"
b0 c
bx P
bx &"
bx N
bx 3"
bx M
bx O
b1 ^
b1 ("
b11111 ]
b11111 '"
b0 \
b0 s
b0 [
b0 m
b0 W
b0 B"
b10 U
b10 h
b0 V
b1 Z
b1 I"
1T
b1 Y
b10010001000000000000011111100010 "
b10010001000000000000011111100010 a
b10010001000000000000011111100010 `
b100 _
b1000 7
b1000 5"
1%
#480000
b10001011000000100000000000100001 ;
b10001011000000100000000000100001 N"
b10010001000000000000011111100010 !
b10010001000000000000011111100010 g
b1000 #
b1000 f
b1000 2"
b1000 M"
b1 <
b1 A"
b100 *
b100 &
0%
#540000
0,
b1 @
b1 k
0?
b1 I
b1 i
b1 z
b1000 H
b1000 D"
0$"
x)"
x:"
x-"
0|
0}
01"
04"
1%"
b1 5
b1 J"
b1 0
b1 7"
b1 K"
b10001011000 6
b10001011000 E"
b11000000100000000000100001 >"
bx d
bx *"
bx 9"
bx c
b1 P
b1 &"
b0 R
b0 ~
b0 L
b0 n
b0 t
b0 {
1Q
b0 N
b0 3"
b0 M
b1 O
b10 ^
b10 ("
b10001011000 S
b1 X
b1 y
b1 C"
b100 W
b100 B"
b10 Z
b10 I"
b10001011000000100000000000100001 "
b10001011000000100000000000100001 a
b10001011000000100000000000100001 `
b1000 _
b1100 7
b1100 5"
1%
#600000
b10001011000000100000000000100010 ;
b10001011000000100000000000100010 N"
b10001011000000100000000000100001 !
b10001011000000100000000000100001 g
b1100 #
b1100 f
b1100 2"
b1100 M"
b10000000 <
b10000000 A"
b101 *
b101 &
0%
#660000
0,
b1 @
b1 k
b0 J
b0 j
b0 q
b0 $
b0 B
b0 o
b0 u
b0 0"
b0 6"
b1 K
b1 w
b1 x
b1000001000 H
b1000001000 D"
b1 I
b1 i
b1 z
b1 F
b1 p
b1 +"
1)"
1:"
0-"
b10 E
b10 v
b10 ,"
b10 5
b10 J"
b11000000100000000000100010 >"
b1 d
b1 *"
b1 9"
b0 b
b0 ."
b1 c
b10 P
b10 &"
b1 L
b1 n
b1 t
b1 {
0Q
b1000 N
b1000 3"
b1 ]
b1 '"
b10000000 X
b10000000 y
b10000000 C"
b1000 W
b1000 B"
b1 Z
b1 I"
0T
b10001011000000100000000000100010 "
b10001011000000100000000000100010 a
b10001011000000100000000000100010 `
b1100 _
b10000 7
b10000 5"
1%
#720000
b10110000000000000000000000010 ;
b10110000000000000000000000010 N"
b10001011000000100000000000100010 !
b10001011000000100000000000100010 g
b10000 #
b10000 f
b10000 2"
b10000 M"
b110 *
b110 &
0%
#780000
b1 I
b1 i
b1 z
b10 @
b10 k
b1 K
b1 w
b1 x
b1 J
b1 j
b1 q
b10 .
b10 @"
b10 G"
bx A
bx F"
1-
x>
01
x:
x?
x4
b1 $
b1 B
b1 o
b1 u
b1 0"
b1 6"
b1000001100 H
b1000001100 D"
b1 E
b1 v
b1 ,"
b10 F
b10 p
b10 +"
b0 0
b0 7"
b0 K"
b10110000 6
b10110000 E"
b10000000000000000000000010 >"
b10 d
b10 *"
b10 9"
b1 b
b1 ."
b1 P
b1 &"
b1000001000 N
b1000001000 3"
b10110000 S
b1100 W
b1100 B"
b10 Z
b10 I"
b10110000000000000000000000010 "
b10110000000000000000000000010 a
b10110000000000000000000000010 `
b10000 _
b10100 7
b10100 5"
1%
#840000
bx ;
bx N"
b10110000000000000000000000010 !
b10110000000000000000000000010 g
b10100 #
b10100 f
b10100 2"
b10100 M"
b1111111111111111111111111111111111111111111111111111111111111110 <
b1111111111111111111111111111111111111111111111111111111111111110 A"
b111 *
b111 &
0%
#841000
b1 2
b1 ;"
#900000
b10 K
b10 w
b10 x
b0 .
b0 @"
b0 G"
b0 A
b0 F"
0-
0>
11
0:
0?
04
b0 J
b0 j
b0 q
b1000 H
b1000 D"
bx 2
bx ;"
1$"
bx 3
bx <"
bx /
bx 8"
bx L"
bx ?"
b10 E
b10 v
b10 ,"
b0 F
b0 p
b0 +"
bx 5
bx J"
bx 0
bx 7"
bx K"
bx 6
bx E"
bx >"
b1 d
b1 *"
b1 9"
b10 P
b10 &"
b10 L
b10 n
b10 t
b10 {
b1000001100 N
b1000001100 3"
b0 ]
b0 '"
bx S
b1111111111111111111111111111111111111111111111111111111111111110 X
b1111111111111111111111111111111111111111111111111111111111111110 y
b1111111111111111111111111111111111111111111111111111111111111110 C"
b1 \
b1 s
b10000 W
b10000 B"
bx U
bx h
b1x00 V
xT
bx0 Y
bx "
bx a
bx `
b10100 _
b11000 7
b11000 5"
1%
#960000
bx !
bx g
b11000 #
b11000 f
b11000 2"
b11000 M"
bx <
bx A"
b1000 *
b1000 &
0%
#1020000
bx I
bx i
bx z
x,
b10 $
b10 B
b10 o
b10 u
b10 0"
b10 6"
bx J
bx j
bx q
bx H
bx D"
bx @
bx k
1$"
x1"
14"
0%"
bx K
bx w
bx x
b10 d
b10 *"
b10 9"
b10 b
b10 ."
b1 R
b1 ~
b1000 N
b1000 3"
b1x00 M
bx0 O
bx ^
bx ("
bx ]
bx '"
bx X
bx y
bx C"
bx \
bx s
bx [
bx m
b10100 W
b10100 B"
b0 U
b0 h
b0 V
bx Z
bx I"
0T
b1 Y
b11000 _
b11100 7
b11100 5"
b0 E
b0 v
b0 ,"
1%
#1080000
b11100 #
b11100 f
b11100 2"
b11100 M"
b1001 *
b1001 &
0%
#1140000
0$"
0)"
0:"
x-"
01"
04"
1%"
bx0 c
bx N
bx 3"
bx P
bx &"
bx R
bx ~
bx L
bx n
bx t
bx {
xQ
b0 M
b1 O
b11000 W
b11000 B"
b11100 _
b1000 7
b1000 5"
1%
#1200000
b10001011000000100000000000100001 ;
b10001011000000100000000000100001 N"
b1000 #
b1000 f
b1000 2"
b1000 M"
b1010 *
b1010 &
0%
#1260000
b10 A
b10 F"
bx $
bx B
bx o
bx u
bx 0"
bx 6"
b10 2
b10 ;"
b1 3
b1 <"
b10 /
b10 8"
b10 L"
b0 ?"
1)"
1:"
0-"
b1 5
b1 J"
b1 0
b1 7"
b1 K"
b10001011000 6
b10001011000 E"
b11000000100000000000100001 >"
bx d
bx *"
bx 9"
bx b
bx ."
b1 c
bx N
bx 3"
b10001011000 S
b11100 W
b11100 B"
b10001011000000100000000000100001 "
b10001011000000100000000000100001 a
b10001011000000100000000000100001 `
b1000 _
b1100 7
b1100 5"
b10 E
b10 v
b10 ,"
b10 F
b10 p
b10 +"
1%
#1320000
b10001011000000100000000000100010 ;
b10001011000000100000000000100010 N"
b10001011000000100000000000100001 !
b10001011000000100000000000100001 g
b1100 #
b1100 f
b1100 2"
b1100 M"
b10000000 <
b10000000 A"
b1011 *
b1011 &
0%
#1380000
0,
b11 @
b11 k
b10 I
b10 i
b10 z
b10 K
b10 w
b10 x
b1 J
b1 j
b1 q
b1000001000 H
b1000001000 D"
b0 E
b0 v
b0 ,"
b0 F
b0 p
b0 +"
b10 5
b10 J"
b11000000100000000000100010 >"
bx N
bx 3"
b10 ^
b10 ("
b1 ]
b1 '"
b10000000 X
b10000000 y
b10000000 C"
b10 \
b10 s
b1 [
b1 m
b1000 W
b1000 B"
b10 U
b10 h
b1 Z
b1 I"
b10001011000000100000000000100010 "
b10001011000000100000000000100010 a
b10001011000000100000000000100010 `
b1100 _
b10000 7
b10000 5"
1%
#1440000
b10110000000000000000000000010 ;
b10110000000000000000000000010 N"
b10001011000000100000000000100010 !
b10001011000000100000000000100010 g
b10000 #
b10000 f
b10000 2"
b10000 M"
b1100 *
b1100 &
0%
#1500000
b101 @
b101 k
b11 J
b11 j
b11 q
b10 .
b10 @"
b10 G"
bx A
bx F"
1-
x>
01
x:
x?
x4
b1000001100 H
b1000001100 D"
b0 3
b0 <"
b10 F
b10 p
b10 +"
b0 0
b0 7"
b0 K"
b10110000 6
b10110000 E"
b10000000000000000000000010 >"
b1 P
b1 &"
b10 R
b10 ~
b11 L
b11 n
b11 t
b11 {
0Q
b1000001000 N
b1000001000 3"
b10110000 S
b1100 W
b1100 B"
b10 Z
b10 I"
b10110000000000000000000000010 "
b10110000000000000000000000010 a
b10110000000000000000000000010 `
b10000 _
b10100 7
b10100 5"
1%
#1560000
bx ;
bx N"
b10110000000000000000000000010 !
b10110000000000000000000000010 g
b10100 #
b10100 f
b10100 2"
b10100 M"
b1111111111111111111111111111111111111111111111111111111111111110 <
b1111111111111111111111111111111111111111111111111111111111111110 A"
b1101 *
b1101 &
0%
#1620000
b0 .
b0 @"
b0 G"
b0 A
b0 F"
0-
0>
11
0:
0?
04
b11 $
b11 B
b11 o
b11 u
b11 0"
b11 6"
b101 K
b101 w
b101 x
b0 J
b0 j
b0 q
b1000 H
b1000 D"
bx 2
bx ;"
1$"
bx 3
bx <"
bx /
bx 8"
bx L"
bx ?"
b10 E
b10 v
b10 ,"
b0 F
b0 p
b0 +"
bx 5
bx J"
bx 0
bx 7"
bx K"
bx 6
bx E"
bx >"
b1 d
b1 *"
b1 9"
b11 b
b11 ."
b10 P
b10 &"
b101 L
b101 n
b101 t
b101 {
b1000001100 N
b1000001100 3"
b0 ]
b0 '"
bx S
b1111111111111111111111111111111111111111111111111111111111111110 X
b1111111111111111111111111111111111111111111111111111111111111110 y
b1111111111111111111111111111111111111111111111111111111111111110 C"
b0 [
b0 m
b10000 W
b10000 B"
bx U
bx h
b1x00 V
xT
bx0 Y
bx "
bx a
bx `
b10100 _
b11000 7
b11000 5"
1%
#1680000
bx !
bx g
b11000 #
b11000 f
b11000 2"
b11000 M"
bx <
bx A"
b1110 *
b1110 &
0%
#1740000
bx I
bx i
bx z
x,
b101 $
b101 B
b101 o
b101 u
b101 0"
b101 6"
bx J
bx j
bx q
bx H
bx D"
bx @
bx k
1$"
x1"
14"
0%"
bx K
bx w
bx x
b10 d
b10 *"
b10 9"
b101 b
b101 ."
b1000 N
b1000 3"
b1x00 M
bx0 O
bx ^
bx ("
bx ]
bx '"
bx X
bx y
bx C"
bx \
bx s
bx [
bx m
b10100 W
b10100 B"
b0 U
b0 h
b0 V
bx Z
bx I"
0T
b1 Y
b11000 _
b11100 7
b11100 5"
b0 E
b0 v
b0 ,"
1%
#1800000
b11100 #
b11100 f
b11100 2"
b11100 M"
b1111 *
b1111 &
0%
#1860000
0$"
0)"
0:"
x-"
01"
04"
1%"
bx0 c
bx N
bx 3"
bx P
bx &"
bx R
bx ~
bx L
bx n
bx t
bx {
xQ
b0 M
b1 O
b11000 W
b11000 B"
b11100 _
b1000 7
b1000 5"
1%
#1920000
b10001011000000100000000000100001 ;
b10001011000000100000000000100001 N"
b1000 #
b1000 f
b1000 2"
b1000 M"
b10000 *
b10000 &
0%
#1980000
b10 A
b10 F"
bx $
bx B
bx o
bx u
bx 0"
bx 6"
b101 2
b101 ;"
b11 3
b11 <"
b10 /
b10 8"
b10 L"
b0 ?"
1)"
1:"
0-"
b1 5
b1 J"
b1 0
b1 7"
b1 K"
b10001011000 6
b10001011000 E"
b11000000100000000000100001 >"
bx d
bx *"
bx 9"
bx b
bx ."
b1 c
bx N
bx 3"
b10001011000 S
b11100 W
b11100 B"
b10001011000000100000000000100001 "
b10001011000000100000000000100001 a
b10001011000000100000000000100001 `
b1000 _
b1100 7
b1100 5"
b10 E
b10 v
b10 ,"
b10 F
b10 p
b10 +"
1%
#2040000
b10001011000000100000000000100010 ;
b10001011000000100000000000100010 N"
b10001011000000100000000000100001 !
b10001011000000100000000000100001 g
b1100 #
b1100 f
b1100 2"
b1100 M"
b10000000 <
b10000000 A"
b10001 *
b10001 &
0%
#2100000
0,
b1000 @
b1000 k
b101 I
b101 i
b101 z
b101 K
b101 w
b101 x
b11 J
b11 j
b11 q
b1000001000 H
b1000001000 D"
b0 E
b0 v
b0 ,"
b0 F
b0 p
b0 +"
b10 5
b10 J"
b11000000100000000000100010 >"
bx N
bx 3"
b10 ^
b10 ("
b1 ]
b1 '"
b10000000 X
b10000000 y
b10000000 C"
b101 \
b101 s
b11 [
b11 m
b1000 W
b1000 B"
b10 U
b10 h
b1 Z
b1 I"
b10001011000000100000000000100010 "
b10001011000000100000000000100010 a
b10001011000000100000000000100010 `
b1100 _
b10000 7
b10000 5"
1%
#2160000
b10110000000000000000000000010 ;
b10110000000000000000000000010 N"
b10001011000000100000000000100010 !
b10001011000000100000000000100010 g
b10000 #
b10000 f
b10000 2"
b10000 M"
b10010 *
b10010 &
0%
#2220000
b1101 @
b1101 k
b1000 J
b1000 j
b1000 q
b10 .
b10 @"
b10 G"
bx A
bx F"
1-
x>
01
x:
x?
x4
b1000001100 H
b1000001100 D"
b0 3
b0 <"
b10 F
b10 p
b10 +"
b0 0
b0 7"
b0 K"
b10110000 6
b10110000 E"
b10000000000000000000000010 >"
b1 P
b1 &"
b101 R
b101 ~
b1000 L
b1000 n
b1000 t
b1000 {
0Q
b1000001000 N
b1000001000 3"
b10110000 S
b1100 W
b1100 B"
b10 Z
b10 I"
b10110000000000000000000000010 "
b10110000000000000000000000010 a
b10110000000000000000000000010 `
b10000 _
b10100 7
b10100 5"
1%
#2280000
bx ;
bx N"
b10110000000000000000000000010 !
b10110000000000000000000000010 g
b10100 #
b10100 f
b10100 2"
b10100 M"
b1111111111111111111111111111111111111111111111111111111111111110 <
b1111111111111111111111111111111111111111111111111111111111111110 A"
b10011 *
b10011 &
0%
#2340000
b0 .
b0 @"
b0 G"
b0 A
b0 F"
0-
0>
11
0:
0?
04
b1000 $
b1000 B
b1000 o
b1000 u
b1000 0"
b1000 6"
b1101 K
b1101 w
b1101 x
b0 J
b0 j
b0 q
b1000 H
b1000 D"
bx 2
bx ;"
1$"
bx 3
bx <"
bx /
bx 8"
bx L"
bx ?"
b10 E
b10 v
b10 ,"
b0 F
b0 p
b0 +"
bx 5
bx J"
bx 0
bx 7"
bx K"
bx 6
bx E"
bx >"
b1 d
b1 *"
b1 9"
b1000 b
b1000 ."
b10 P
b10 &"
b1101 L
b1101 n
b1101 t
b1101 {
b1000001100 N
b1000001100 3"
b0 ]
b0 '"
bx S
b1111111111111111111111111111111111111111111111111111111111111110 X
b1111111111111111111111111111111111111111111111111111111111111110 y
b1111111111111111111111111111111111111111111111111111111111111110 C"
b0 [
b0 m
b10000 W
b10000 B"
bx U
bx h
b1x00 V
xT
bx0 Y
bx "
bx a
bx `
b10100 _
b11000 7
b11000 5"
1%
#2400000
bx !
bx g
b11000 #
b11000 f
b11000 2"
b11000 M"
bx <
bx A"
b10100 *
b10100 &
0%
#2460000
bx I
bx i
bx z
x,
b1101 $
b1101 B
b1101 o
b1101 u
b1101 0"
b1101 6"
bx J
bx j
bx q
bx H
bx D"
bx @
bx k
1$"
x1"
14"
0%"
bx K
bx w
bx x
b10 d
b10 *"
b10 9"
b1101 b
b1101 ."
b1000 N
b1000 3"
b1x00 M
bx0 O
bx ^
bx ("
bx ]
bx '"
bx X
bx y
bx C"
bx \
bx s
bx [
bx m
b10100 W
b10100 B"
b0 U
b0 h
b0 V
bx Z
bx I"
0T
b1 Y
b11000 _
b11100 7
b11100 5"
b0 E
b0 v
b0 ,"
1%
#2520000
b11100 #
b11100 f
b11100 2"
b11100 M"
b10101 *
b10101 &
0%
#2580000
0$"
0)"
0:"
x-"
01"
04"
1%"
bx0 c
bx N
bx 3"
bx P
bx &"
bx R
bx ~
bx L
bx n
bx t
bx {
xQ
b0 M
b1 O
b11000 W
b11000 B"
b11100 _
b1000 7
b1000 5"
1%
#2640000
b10001011000000100000000000100001 ;
b10001011000000100000000000100001 N"
b1000 #
b1000 f
b1000 2"
b1000 M"
b10110 *
b10110 &
0%
#2700000
b10 A
b10 F"
bx $
bx B
bx o
bx u
bx 0"
bx 6"
b1101 2
b1101 ;"
b1000 3
b1000 <"
b10 /
b10 8"
b10 L"
b0 ?"
1)"
1:"
0-"
b1 5
b1 J"
b1 0
b1 7"
b1 K"
b10001011000 6
b10001011000 E"
b11000000100000000000100001 >"
bx d
bx *"
bx 9"
bx b
bx ."
b1 c
bx N
bx 3"
b10001011000 S
b11100 W
b11100 B"
b10001011000000100000000000100001 "
b10001011000000100000000000100001 a
b10001011000000100000000000100001 `
b1000 _
b1100 7
b1100 5"
b10 E
b10 v
b10 ,"
b10 F
b10 p
b10 +"
1%
#2760000
b10001011000000100000000000100010 ;
b10001011000000100000000000100010 N"
b10001011000000100000000000100001 !
b10001011000000100000000000100001 g
b1100 #
b1100 f
b1100 2"
b1100 M"
b10000000 <
b10000000 A"
b10111 *
b10111 &
0%
#2820000
0,
b10101 @
b10101 k
b1101 I
b1101 i
b1101 z
b1101 K
b1101 w
b1101 x
b1000 J
b1000 j
b1000 q
b1000001000 H
b1000001000 D"
b0 E
b0 v
b0 ,"
b0 F
b0 p
b0 +"
b10 5
b10 J"
b11000000100000000000100010 >"
bx N
bx 3"
b10 ^
b10 ("
b1 ]
b1 '"
b10000000 X
b10000000 y
b10000000 C"
b1101 \
b1101 s
b1000 [
b1000 m
b1000 W
b1000 B"
b10 U
b10 h
b1 Z
b1 I"
b10001011000000100000000000100010 "
b10001011000000100000000000100010 a
b10001011000000100000000000100010 `
b1100 _
b10000 7
b10000 5"
1%
#2880000
b10110000000000000000000000010 ;
b10110000000000000000000000010 N"
b10001011000000100000000000100010 !
b10001011000000100000000000100010 g
b10000 #
b10000 f
b10000 2"
b10000 M"
b11000 *
b11000 &
0%
#2940000
b100010 @
b100010 k
b10101 J
b10101 j
b10101 q
b10 .
b10 @"
b10 G"
bx A
bx F"
1-
x>
01
x:
x?
x4
b1000001100 H
b1000001100 D"
b0 3
b0 <"
b10 F
b10 p
b10 +"
b0 0
b0 7"
b0 K"
b10110000 6
b10110000 E"
b10000000000000000000000010 >"
b1 P
b1 &"
b1101 R
b1101 ~
b10101 L
b10101 n
b10101 t
b10101 {
0Q
b1000001000 N
b1000001000 3"
b10110000 S
b1100 W
b1100 B"
b10 Z
b10 I"
b10110000000000000000000000010 "
b10110000000000000000000000010 a
b10110000000000000000000000010 `
b10000 _
b10100 7
b10100 5"
1%
#3000000
bx ;
bx N"
b10110000000000000000000000010 !
b10110000000000000000000000010 g
b10100 #
b10100 f
b10100 2"
b10100 M"
b1111111111111111111111111111111111111111111111111111111111111110 <
b1111111111111111111111111111111111111111111111111111111111111110 A"
b11001 *
b11001 &
0%
#3060000
b0 .
b0 @"
b0 G"
b0 A
b0 F"
0-
0>
11
0:
0?
04
b10101 $
b10101 B
b10101 o
b10101 u
b10101 0"
b10101 6"
b100010 K
b100010 w
b100010 x
b0 J
b0 j
b0 q
b1000 H
b1000 D"
bx 2
bx ;"
1$"
bx 3
bx <"
bx /
bx 8"
bx L"
bx ?"
b10 E
b10 v
b10 ,"
b0 F
b0 p
b0 +"
bx 5
bx J"
bx 0
bx 7"
bx K"
bx 6
bx E"
bx >"
b1 d
b1 *"
b1 9"
b10101 b
b10101 ."
b10 P
b10 &"
b100010 L
b100010 n
b100010 t
b100010 {
b1000001100 N
b1000001100 3"
b0 ]
b0 '"
bx S
b1111111111111111111111111111111111111111111111111111111111111110 X
b1111111111111111111111111111111111111111111111111111111111111110 y
b1111111111111111111111111111111111111111111111111111111111111110 C"
b0 [
b0 m
b10000 W
b10000 B"
bx U
bx h
b1x00 V
xT
bx0 Y
bx "
bx a
bx `
b10100 _
b11000 7
b11000 5"
1%
#3120000
bx !
bx g
b11000 #
b11000 f
b11000 2"
b11000 M"
bx <
bx A"
b11010 *
b11010 &
0%
